{"componentChunkName":"component---node-modules-gatsby-theme-buzzing-src-gatsby-theme-timeline-templates-posts-query-js","path":"/zh-Hant/page/60","result":{"data":{"site":{"siteMetadata":{"title":"国外股市热门","author":"Buzzing.cc","description":"用中文浏览国外股票社区里的热门讨论","keywords":["buzzing","美股","股票","股市"],"siteUrl":"https://stocks.buzzing.cc","telegram":"@stocks_top","iconUrl":"https://stocks.buzzing.cc/avatar.png","defaultSocialImageUrl":null,"social":[{"name":"Reddit Stocks","url":"https://www.reddit.com/r/stocks","external":true},{"name":"Reddit Investing","url":"https://www.reddit.com/r/investing","external":true},{"name":"Charlie Bilello's twitter","url":"https://twitter.com/charliebilello","external":true},{"name":"Buzzing","url":"https://www.buzzing.cc/","external":true}],"menuLinks":[{"name":"每周精选","url":"/issues","external":null}],"disqus":null,"utterances":null,"localize":[{"title":"Buzzing on Stocks","description":"See popular discussions in foreign stock communities in your native language","keywords":["buzzing","stocks","U.S. stocks"],"locale":"en","social":{"name":null,"url":null,"external":null},"menuLinks":[{"name":"Weekly Selection","url":"/en/issues","external":null}]},{"title":"國外股市熱門","description":"用中文瀏覽國外股票社區裡的熱門討論","keywords":["buzzing","美股","股票","股市"],"locale":"zh-Hant","social":null,"menuLinks":[{"name":"每週精選","url":"/zh-Hant/issues","external":null}]},{"title":"米国株式市場人気の話し合います","description":"人気の米国株式市場の話し合いまを日本語で閲覧","keywords":["buzzing","米国株式市場"],"locale":"ja","social":null,"menuLinks":[]}]}},"tagsGroup":{"group":[{"fieldValue":"Bogleheads","totalCount":357},{"fieldValue":"NFTGiveaway","totalCount":1},{"fieldValue":"blessed","totalCount":1},{"fieldValue":"investing","totalCount":314},{"fieldValue":"reddit","totalCount":2402},{"fieldValue":"stocks","totalCount":859},{"fieldValue":"tweet","totalCount":549},{"fieldValue":"wallstreetbets","totalCount":872}]},"allBlogPost":{"nodes":[{"id":"RedditPost-pfgew5","excerpt":"This started about 4 years ago when my son was 2 years old. I started to\nsupplement his picture books and cartoons with beginner options books and Martin\nShkerli's live videos on how to pick pharmaceutical stocks. Over the course of\nthese years I feel like he has retained absolutely nothing even…","slug":"/reddit/r/wallstreetbets/comments/pfgew5/am_i_the_asshole_for_dropping_my_6_year_old_off/","title":"Am I The Asshole for dropping my 6 year old off at an orphanage for his inability to trade options","date":"September 01, 2021","dateISO":"2021-09-01T01:06:04.000Z","datetime":"2021-09-01 01:06","tags":["wallstreetbets","reddit"],"image":null,"imageAlt":null,"__typename":"SocialMediaPost","provider":"Reddit","thirdPartyId":"pfgew5","url":"https://www.reddit.com/r/wallstreetbets/comments/pfgew5/am_i_the_asshole_for_dropping_my_6_year_old_off/","originalUrl":"https://www.reddit.com/r/wallstreetbets/comments/pfgew5/am_i_the_asshole_for_dropping_my_6_year_old_off/","imageRemote":null,"video":null,"channel":"wallstreetbets","channelUrl":"https://www.reddit.com/r/wallstreetbets","author":"ExactAppearance","authorUrl":"https://www.reddit.com/user/ExactAppearance","authorImageRemote":null,"authorImage":null,"authorSlug":"ExactAppearance","score":27532,"views":null,"sharedCount":null,"likeCount":null,"sharedContent":null,"parent":{"localize":[{"title":"6歳の子供がトレードできないことを理由に孤児院に預けた私はアホですか？","the_new_excerpt":"これが始まったのは4年ほど前、息子が2歳の時でした。私が始めたのは\n絵本やアニメに加えて、初心者向けのオプションブックやマーティン\n製薬会社の銘柄を選ぶためのマーティン・シュケルリのライブ・ビデオで補うようになりました。この数年間で\nこの数年間、息子は何も身につけていないような気がします...。","locale":"ja"},{"title":"我是一个混蛋，因为我的6岁孩子不会交易而把他丢到孤儿院去了。","the_new_excerpt":"这大约始于4年前我儿子2岁的时候。我开始\n在他的图画书和动画片中加入初级期权书籍和马丁\nShkerli关于如何挑选医药股的现场视频。在这几年的时间里\n这些年来，我觉得他完全没有保留任何东西，甚至...","locale":"zh"},{"title":"我是一個混蛋，因爲我的6歲孩子不會交易而把他丟到孤兒院去了。","the_new_excerpt":"這大約始於4年前我兒子2歲的時候。我開始\n在他的圖畫書和動畫片中加入初級期權書籍和馬丁\nShkerli關於如何挑選醫藥股的現場視頻。在這幾年的時間裏\n這些年來，我覺得他完全沒有保留任何東西，甚至...","locale":"zh-Hant"}]}}]}},"pageContext":{"basePath":"/","pageType":"home","tagsFilter":{"date":{"gt":"2000-12-25T10:54:58.000Z"}},"filter":{"date":{"gt":"2000-12-25T10:54:58.000Z"}},"limit":50,"skip":2950,"totalPages":60,"total":2951,"currentPage":60,"maxWidth":1024,"maxHeight":512,"siteMetadata":null,"locale":"zh-Hant","hrefLang":"zh-Hant","originalPath":"/page/60","dateFormat":"YYYY-MM-DD"}},"staticQueryHashes":["1239077767","2744905544","3025052997","3280999885"]}