{"componentChunkName":"component---node-modules-gatsby-theme-buzzing-src-gatsby-theme-timeline-templates-posts-query-js","path":"/tags/wallstreetbets/page/3","result":{"data":{"site":{"siteMetadata":{"title":"国外股市热门","author":"Buzzing.cc","description":"用中文浏览国外股票社区里的热门讨论","keywords":["buzzing","美股","股票","股市"],"siteUrl":"https://stocks.buzzing.cc","telegram":"@stocks_top","iconUrl":"https://stocks.buzzing.cc/avatar.png","defaultSocialImageUrl":null,"social":[{"name":"Reddit Stocks","url":"https://www.reddit.com/r/stocks","external":true},{"name":"Reddit Investing","url":"https://www.reddit.com/r/investing","external":true},{"name":"Charlie Bilello's twitter","url":"https://twitter.com/charliebilello","external":true},{"name":"Buzzing","url":"https://www.buzzing.cc/","external":true}],"menuLinks":[{"name":"每周精选","url":"/issues","external":null}],"disqus":null,"utterances":null,"localize":[{"title":"Buzzing on Stocks","description":"See popular discussions in foreign stock communities in your native language","keywords":["buzzing","stocks","U.S. stocks"],"locale":"en","social":{"name":null,"url":null,"external":null},"menuLinks":[{"name":"Weekly Selection","url":"/en/issues","external":null}]},{"title":"國外股市熱門","description":"用中文瀏覽國外股票社區裡的熱門討論","keywords":["buzzing","美股","股票","股市"],"locale":"zh-Hant","social":null,"menuLinks":[{"name":"每週精選","url":"/zh-Hant/issues","external":null}]},{"title":"米国株式市場人気の話し合います","description":"人気の米国株式市場の話し合いまを日本語で閲覧","keywords":["buzzing","米国株式市場"],"locale":"ja","social":null,"menuLinks":[]}]}},"tagsGroup":{"group":[{"fieldValue":"Bogleheads","totalCount":423},{"fieldValue":"NFTGiveaway","totalCount":1},{"fieldValue":"UPDATE","totalCount":1},{"fieldValue":"blessed","totalCount":1},{"fieldValue":"investing","totalCount":360},{"fieldValue":"reddit","totalCount":2783},{"fieldValue":"stocks","totalCount":996},{"fieldValue":"tweet","totalCount":617},{"fieldValue":"wallstreetbets","totalCount":1004}]},"allBlogPost":{"nodes":[{"id":"RedditPost-pfhn3d","excerpt":"","slug":"/reddit/r/wallstreetbets/comments/pfhn3d/gme_has_consistently_spiked_every_t17_days_before/","title":"GME has consistently spiked every T-17 days before quad witching which is what we saw last week on 8-24. Next spike is T-9 before quad witching which is this Friday 9-3.","date":"September 01, 2021","dateISO":"2021-09-01T09:50:19.000Z","datetime":"2021-09-01 09:50","tags":["wallstreetbets","reddit"],"image":null,"imageAlt":null,"__typename":"SocialMediaPost","provider":"Reddit","thirdPartyId":"pfhn3d","url":"https://www.reddit.com/r/wallstreetbets/comments/pfhn3d/gme_has_consistently_spiked_every_t17_days_before/","originalUrl":"https://www.reddit.com/r/wallstreetbets/comments/pfhn3d/gme_has_consistently_spiked_every_t17_days_before/","imageRemote":null,"video":null,"channel":"wallstreetbets","channelUrl":"https://www.reddit.com/r/wallstreetbets","author":"_disguy","authorUrl":"https://www.reddit.com/user/_disguy","authorImageRemote":null,"authorImage":null,"authorSlug":"_disguy","score":2084,"views":null,"sharedCount":null,"likeCount":null,"sharedContent":null,"parent":{"localize":[{"title":"GMEは、先週の8月24日に見られたように、Quad WitchingのT-17日前になると一貫して急上昇している。次のスパイクは、今週の金曜日9-3のように、4回目のウィッチの前のT-9です。","the_new_excerpt":null,"locale":"ja"},{"title":"GME一直在每一个T-17日的四级巫术前飙升，这就是我们上周在8-24日看到的情况。下一次飙升是在四级巫术前的第9天，也就是本周五的9-3。","the_new_excerpt":null,"locale":"zh"},{"title":"GME一直在每一個T-17日的四級巫術前飆升，這就是我們上週在8-24日看到的情況。下一次飆升是在四級巫術前的第9天，也就是本週五的9-3。","the_new_excerpt":null,"locale":"zh-Hant"}]}},{"id":"RedditPost-pfirph","excerpt":"","slug":"/reddit/r/wallstreetbets/comments/pfirph/part_1_largest_wsb_loss_porn_ever_posted/","title":"Part 1: Largest WSB LOSS Porn Ever Posted!!!","date":"September 01, 2021","dateISO":"2021-09-01T03:32:41.000Z","datetime":"2021-09-01 03:32","tags":["wallstreetbets","reddit"],"image":null,"imageAlt":null,"__typename":"SocialMediaPost","provider":"Reddit","thirdPartyId":"pfirph","url":"https://www.reddit.com/r/wallstreetbets/comments/pfirph/part_1_largest_wsb_loss_porn_ever_posted/","originalUrl":"https://www.reddit.com/r/wallstreetbets/comments/pfirph/part_1_largest_wsb_loss_porn_ever_posted/","imageRemote":null,"video":null,"channel":"wallstreetbets","channelUrl":"https://www.reddit.com/r/wallstreetbets","author":"squarexu","authorUrl":"https://www.reddit.com/user/squarexu","authorImageRemote":null,"authorImage":null,"authorSlug":"squarexu","score":9405,"views":null,"sharedCount":null,"likeCount":null,"sharedContent":null,"parent":{"localize":[{"title":"パート1 史上最大のWSB LOSSポルノを掲載!!!","the_new_excerpt":null,"locale":"ja"},{"title":"第一部分。有史以来最大的WSB LOSS Porn发布！!","the_new_excerpt":null,"locale":"zh"},{"title":"第一部分。有史以來最大的WSB LOSS Porn發佈！!","the_new_excerpt":null,"locale":"zh-Hant"}]}},{"id":"RedditPost-pfdxlp","excerpt":"","slug":"/reddit/r/wallstreetbets/comments/pfdxlp/gme_i_like_patterns_ath_sept_8th_breakout_to_peak/","title":"GME: I like patterns. ATH SEPT 8TH? Breakout to peak = 10 days. Peak to next breakout = 52 days.","date":"September 01, 2021","dateISO":"2021-09-01T02:09:09.000Z","datetime":"2021-09-01 02:09","tags":["wallstreetbets","reddit"],"image":null,"imageAlt":null,"__typename":"SocialMediaPost","provider":"Reddit","thirdPartyId":"pfdxlp","url":"https://www.reddit.com/r/wallstreetbets/comments/pfdxlp/gme_i_like_patterns_ath_sept_8th_breakout_to_peak/","originalUrl":"https://www.reddit.com/r/wallstreetbets/comments/pfdxlp/gme_i_like_patterns_ath_sept_8th_breakout_to_peak/","imageRemote":null,"video":null,"channel":"wallstreetbets","channelUrl":"https://www.reddit.com/r/wallstreetbets","author":"KenekiKen","authorUrl":"https://www.reddit.com/user/KenekiKen","authorImageRemote":null,"authorImage":null,"authorSlug":"KenekiKen","score":1992,"views":null,"sharedCount":null,"likeCount":null,"sharedContent":null,"parent":{"localize":[{"title":"GME：パターンが好きです。ATHは9月8日？ピークまでのブレイクアウト＝10日間。ピークから次のブレイクアウトまで＝52日。","the_new_excerpt":null,"locale":"ja"},{"title":"GME：我喜欢图案。ATH 9月8日？突破到峰值=10天。峰值到下一个突破点=52天。","the_new_excerpt":null,"locale":"zh"},{"title":"GME：我喜歡圖案。ATH 9月8日？突破到峯值=10天。峯值到下一個突破點=52天。","the_new_excerpt":null,"locale":"zh-Hant"}]}},{"id":"RedditPost-pfgew5","excerpt":"This started about 4 years ago when my son was 2 years old. I started to\nsupplement his picture books and cartoons with beginner options books and Martin\nShkerli's live videos on how to pick pharmaceutical stocks. Over the course of\nthese years I feel like he has retained absolutely nothing even…","slug":"/reddit/r/wallstreetbets/comments/pfgew5/am_i_the_asshole_for_dropping_my_6_year_old_off/","title":"Am I The Asshole for dropping my 6 year old off at an orphanage for his inability to trade options","date":"September 01, 2021","dateISO":"2021-09-01T01:06:04.000Z","datetime":"2021-09-01 01:06","tags":["wallstreetbets","reddit"],"image":null,"imageAlt":null,"__typename":"SocialMediaPost","provider":"Reddit","thirdPartyId":"pfgew5","url":"https://www.reddit.com/r/wallstreetbets/comments/pfgew5/am_i_the_asshole_for_dropping_my_6_year_old_off/","originalUrl":"https://www.reddit.com/r/wallstreetbets/comments/pfgew5/am_i_the_asshole_for_dropping_my_6_year_old_off/","imageRemote":null,"video":null,"channel":"wallstreetbets","channelUrl":"https://www.reddit.com/r/wallstreetbets","author":"ExactAppearance","authorUrl":"https://www.reddit.com/user/ExactAppearance","authorImageRemote":null,"authorImage":null,"authorSlug":"ExactAppearance","score":27532,"views":null,"sharedCount":null,"likeCount":null,"sharedContent":null,"parent":{"localize":[{"title":"6歳の子供がトレードできないことを理由に孤児院に預けた私はアホですか？","the_new_excerpt":"これが始まったのは4年ほど前、息子が2歳の時でした。私が始めたのは\n絵本やアニメに加えて、初心者向けのオプションブックやマーティン\n製薬会社の銘柄を選ぶためのマーティン・シュケルリのライブ・ビデオで補うようになりました。この数年間で\nこの数年間、息子は何も身につけていないような気がします...。","locale":"ja"},{"title":"我是一个混蛋，因为我的6岁孩子不会交易而把他丢到孤儿院去了。","the_new_excerpt":"这大约始于4年前我儿子2岁的时候。我开始\n在他的图画书和动画片中加入初级期权书籍和马丁\nShkerli关于如何挑选医药股的现场视频。在这几年的时间里\n这些年来，我觉得他完全没有保留任何东西，甚至...","locale":"zh"},{"title":"我是一個混蛋，因爲我的6歲孩子不會交易而把他丟到孤兒院去了。","the_new_excerpt":"這大約始於4年前我兒子2歲的時候。我開始\n在他的圖畫書和動畫片中加入初級期權書籍和馬丁\nShkerli關於如何挑選醫藥股的現場視頻。在這幾年的時間裏\n這些年來，我覺得他完全沒有保留任何東西，甚至...","locale":"zh-Hant"}]}}]}},"pageContext":{"basePath":"/","pageType":"tag","tag":"wallstreetbets","tagsFilter":{"date":{"gt":"2000-12-25T10:54:58.000Z"}},"filter":{"date":{"gt":"2000-12-25T10:54:58.000Z"},"tags":{"eq":"wallstreetbets"}},"limit":500,"skip":1000,"total":1004,"totalPages":3,"currentPage":3,"maxWidth":1024,"maxHeight":512,"siteMetadata":null,"locale":"zh","hrefLang":"zh-Hans","originalPath":"/tags/wallstreetbets/page/3","dateFormat":"YYYY-MM-DD"}},"staticQueryHashes":["1239077767","2744905544","3025052997","3280999885"]}