{"componentChunkName":"component---node-modules-gatsby-theme-buzzing-src-gatsby-theme-timeline-templates-posts-query-js","path":"/page/53","result":{"data":{"site":{"siteMetadata":{"title":"国外股市热门","author":"Buzzing.cc","description":"用中文浏览国外股票社区里的热门讨论","keywords":["buzzing","美股","股票","股市"],"siteUrl":"https://stocks.buzzing.cc","telegram":"@stocks_top","iconUrl":"https://stocks.buzzing.cc/avatar.png","defaultSocialImageUrl":null,"social":[{"name":"Reddit Stocks","url":"https://www.reddit.com/r/stocks","external":true},{"name":"Reddit Investing","url":"https://www.reddit.com/r/investing","external":true},{"name":"Charlie Bilello's twitter","url":"https://twitter.com/charliebilello","external":true},{"name":"Buzzing","url":"https://www.buzzing.cc/","external":true}],"menuLinks":[{"name":"每周精选","url":"/issues","external":null}],"disqus":null,"utterances":null,"localize":[{"title":"Buzzing on Stocks","description":"See popular discussions in foreign stock communities in your native language","keywords":["buzzing","stocks","U.S. stocks"],"locale":"en","social":{"name":null,"url":null,"external":null},"menuLinks":[{"name":"Weekly Selection","url":"/en/issues","external":null}]},{"title":"國外股市熱門","description":"用中文瀏覽國外股票社區裡的熱門討論","keywords":["buzzing","美股","股票","股市"],"locale":"zh-Hant","social":null,"menuLinks":[{"name":"每週精選","url":"/zh-Hant/issues","external":null}]},{"title":"米国株式市場人気の話し合います","description":"人気の米国株式市場の話し合いまを日本語で閲覧","keywords":["buzzing","米国株式市場"],"locale":"ja","social":null,"menuLinks":[]}]}},"tagsGroup":{"group":[{"fieldValue":"Bogleheads","totalCount":305},{"fieldValue":"NFTGiveaway","totalCount":1},{"fieldValue":"blessed","totalCount":1},{"fieldValue":"investing","totalCount":270},{"fieldValue":"reddit","totalCount":2098},{"fieldValue":"stocks","totalCount":739},{"fieldValue":"tweet","totalCount":508},{"fieldValue":"wallstreetbets","totalCount":784}]},"allBlogPost":{"nodes":[{"id":"RedditPost-pfbreo","excerpt":"\"Units of Lotus and electric-vehicle upstart Nio Inc. signed an investment pact\nas the Chinese owner of the iconic maker of British sports and racing cars seeks\nto transform it into an all-electric brand.\n\nLotus Technology and Nio will explore collaboration in areas including high-end\nintelligent…","slug":"/reddit/r/stocks/comments/pfbreo/nio_and_european_premium_car_brand_lotus_form_ev/","title":"Nio and European premium car brand Lotus form EV partnership","date":"September 01, 2021","dateISO":"2021-09-01T02:52:45.000Z","datetime":"2021-09-01 02:52","tags":["stocks","reddit"],"image":null,"imageAlt":null,"__typename":"SocialMediaPost","provider":"Reddit","thirdPartyId":"pfbreo","url":"https://www.reddit.com/r/stocks/comments/pfbreo/nio_and_european_premium_car_brand_lotus_form_ev/","originalUrl":"https://www.reddit.com/r/stocks/comments/pfbreo/nio_and_european_premium_car_brand_lotus_form_ev/","imageRemote":null,"video":null,"channel":"stocks","channelUrl":"https://www.reddit.com/r/stocks","author":"jjohnjameson","authorUrl":"https://www.reddit.com/user/jjohnjameson","authorImageRemote":null,"authorImage":null,"authorSlug":"jjohnjameson","score":78,"views":null,"sharedCount":null,"likeCount":null,"sharedContent":null,"parent":{"localize":[{"title":"Nioと欧州プレミアムカーブランドLotusがEVパートナーシップを締結","the_new_excerpt":"「ロータスのユニットと電気自動車の新興企業であるNio Inc.が、投資協定を締結しました。\n英国を代表するスポーツカーやレーシングカーのメーカーであるロータスを所有する中国のオーナーは、ロータスを自動車産業に転換しようとしています。\nこれは、英国を代表するスポーツカーやレーシングカーのメーカーであるロータスの中国のオーナーが、ロータスを電気自動車のブランドに変えようとするものです。\n\nロータス・テクノロジー社とNio社は、ハイエンドの電気自動車を含む分野での協力を検討します。\nインテリジェント...","locale":"ja"},{"title":"尼奥与欧洲高档汽车品牌莲花建立电动车合作关系","the_new_excerpt":"\"莲花汽车公司和电动汽车新贵Nio Inc.签署了一项投资协议。\n这家英国标志性跑车和赛车制造商的中国所有者寻求将其转变为全电动品牌。\n将其转变为一个全电动的品牌。\n\n莲花科技公司和尼奥公司将探索在包括高端汽车在内的领域进行合作。\n智能化...","locale":"zh"},{"title":"尼奧與歐洲高檔汽車品牌蓮花建立電動車合作關係","the_new_excerpt":"\"蓮花汽車公司和電動汽車新貴Nio Inc.簽署了一項投資協議。\n這家英國標誌性跑車和賽車製造商的中國所有者尋求將其轉變爲全電動品牌。\n將其轉變爲一個全電動的品牌。\n\n蓮花科技公司和尼奧公司將探索在包括高端汽車在內的領域進行合作。\n智能化...","locale":"zh-Hant"}]}},{"id":"TweetPost-1432789845265498113","excerpt":"","slug":"/tweet/1432789845265498113","title":"https://t.co/DxjXTWQrKx","date":"September 01, 2021","dateISO":"2021-09-01T02:09:13.000Z","datetime":"2021-09-01 02:09","tags":["tweet"],"image":null,"imageAlt":"Tweet Image","__typename":"SocialMediaPost","provider":"Twitter","thirdPartyId":"1432789845265498113","url":"https://twitter.com/michaelbatnick/statuses/1432789845265498113","originalUrl":null,"imageRemote":"https://pbs.twimg.com/media/E-JKuzSXoAIRs6K.jpg","video":null,"channel":null,"channelUrl":null,"author":"Michael Batnick","authorUrl":"https://twitter.com/michaelbatnick","authorImageRemote":"https://pbs.twimg.com/profile_images/1157350851406716932/rNWwlpQL.jpg","authorImage":null,"authorSlug":"michaelbatnick","score":552,"views":null,"sharedCount":21,"likeCount":510,"sharedContent":null,"parent":{"localize":[{"locale":"ja","full_text":"https://t.co/DxjXTWQrKx","quoted_status_full_text":null,"retweeted_status_full_text":null},{"locale":"zh","full_text":"https://t.co/DxjXTWQrKx","quoted_status_full_text":null,"retweeted_status_full_text":null},{"locale":"zh-Hant","full_text":"https://t.co/DxjXTWQrKx","quoted_status_full_text":null,"retweeted_status_full_text":null}]}},{"id":"RedditPost-pfdxlp","excerpt":"","slug":"/reddit/r/wallstreetbets/comments/pfdxlp/gme_i_like_patterns_ath_sept_8th_breakout_to_peak/","title":"GME: I like patterns. ATH SEPT 8TH? Breakout to peak = 10 days. Peak to next breakout = 52 days.","date":"September 01, 2021","dateISO":"2021-09-01T02:09:09.000Z","datetime":"2021-09-01 02:09","tags":["wallstreetbets","reddit"],"image":null,"imageAlt":null,"__typename":"SocialMediaPost","provider":"Reddit","thirdPartyId":"pfdxlp","url":"https://www.reddit.com/r/wallstreetbets/comments/pfdxlp/gme_i_like_patterns_ath_sept_8th_breakout_to_peak/","originalUrl":"https://www.reddit.com/r/wallstreetbets/comments/pfdxlp/gme_i_like_patterns_ath_sept_8th_breakout_to_peak/","imageRemote":null,"video":null,"channel":"wallstreetbets","channelUrl":"https://www.reddit.com/r/wallstreetbets","author":"KenekiKen","authorUrl":"https://www.reddit.com/user/KenekiKen","authorImageRemote":null,"authorImage":null,"authorSlug":"KenekiKen","score":1992,"views":null,"sharedCount":null,"likeCount":null,"sharedContent":null,"parent":{"localize":[{"title":"GME：パターンが好きです。ATHは9月8日？ピークまでのブレイクアウト＝10日間。ピークから次のブレイクアウトまで＝52日。","the_new_excerpt":null,"locale":"ja"},{"title":"GME：我喜欢图案。ATH 9月8日？突破到峰值=10天。峰值到下一个突破点=52天。","the_new_excerpt":null,"locale":"zh"},{"title":"GME：我喜歡圖案。ATH 9月8日？突破到峯值=10天。峯值到下一個突破點=52天。","the_new_excerpt":null,"locale":"zh-Hant"}]}},{"id":"TweetPost-1432827517644197893","excerpt":"","slug":"/tweet/1432827517644197893","title":"August\nhttps://t.co/iVN15TDfLk $SPRT: +291%\nSolana $SOL: +195%\nCardano $ADA: +110%\nGamestop $GME: +35%\nEthereum $ETH: +35%\nDogecoin $DOGE: +33%\nAMC $AMC: +27%\nBitcoin $BTC: +13%\nTesla $TSLA: +7%\nNasdaq 100 $QQQ: +4%\nS&amp;P $SPY: +3%\nVol $VIX: -10%\nPeloton $PTON: -15%\nZoom $ZM: -23%","date":"September 01, 2021","dateISO":"2021-09-01T01:06:08.000Z","datetime":"2021-09-01 01:06","tags":["tweet"],"image":null,"imageAlt":null,"__typename":"SocialMediaPost","provider":"Twitter","thirdPartyId":"1432827517644197893","url":"https://twitter.com/charliebilello/statuses/1432827517644197893","originalUrl":null,"imageRemote":null,"video":null,"channel":null,"channelUrl":null,"author":"Charlie Bilello","authorUrl":"https://twitter.com/charliebilello","authorImageRemote":"https://pbs.twimg.com/profile_images/1207655488168574976/N0sQdj76.png","authorImage":null,"authorSlug":"charliebilello","score":908,"views":null,"sharedCount":124,"likeCount":660,"sharedContent":null,"parent":{"localize":[{"locale":"ja","full_text":"8月\nhttps://t.co/iVN15TDfLk $SPRT： +291％の増加\nソラナ $SOL： +195\nカルダノ $ADA: +110%\nゲームストップ $GME: +35%\nイーサリアム $ETH： +35\nドッグコイン $DOGE +33%\nAMC $AMC: +27%\nビットコイン $BTC: +13\nテスラ $TSLA： +7\nナスダック100 $QQQ: +4\nS&amp;P $SPY: +3%\nボル VIX $VIX： -10\nペロトン $PTON： -15\nズーム $ZM: -23","quoted_status_full_text":null,"retweeted_status_full_text":null},{"locale":"zh","full_text":"八月\nhttps://t.co/iVN15TDfLk $SPRT: +291%\nSolana $SOL: +195%\nCardano $ADA: +110%\nGamestop $GME: +35%\n以太坊 $ETH: +35\nDogecoin $DOGE: +33%\nAMC $AMC: +27%\n比特币 $BTC: +13\n特斯拉 $TSLA: +7%\n纳斯达克100指数 $QQQ: +4%\nS&amp;P $SPY: +3%\nVol $VIX: -10%\nPeloton $PTON: -15\nZoom $ZM: -23","quoted_status_full_text":null,"retweeted_status_full_text":null},{"locale":"zh-Hant","full_text":"八月\nhttps://t.co/iVN15TDfLk $SPRT: +291%\nSolana $SOL: +195%\nCardano $ADA: +110%\nGamestop $GME: +35%\n以太坊 $ETH: +35\nDogecoin $DOGE: +33%\nAMC $AMC: +27%\n比特幣 $BTC: +13\n特斯拉 $TSLA: +7%\n納斯達克100指數 $QQQ: +4%\nS&amp;P $SPY: +3%\nVol $VIX: -10%\nPeloton $PTON: -15\nZoom $ZM: -23","quoted_status_full_text":null,"retweeted_status_full_text":null}]}},{"id":"RedditPost-pffisi","excerpt":"What’s up everybody, looking for some advice and feedback on my situation. I’m\n34, have 3 kids, wife doesn’t work, and I am fortunate enough to own a rental\nproperty with no mortgage. I net about $1250/month after HOA, taxes, insurance\netc. that doesn’t include unexpected expenses like fixing the AC…","slug":"/reddit/r/investing/comments/pffisi/keep_rental_property_or_invest_in_stocks/","title":"Keep Rental Property or Invest in stocks??","date":"September 01, 2021","dateISO":"2021-09-01T01:06:04.000Z","datetime":"2021-09-01 01:06","tags":["investing","reddit"],"image":null,"imageAlt":null,"__typename":"SocialMediaPost","provider":"Reddit","thirdPartyId":"pffisi","url":"https://www.reddit.com/r/investing/comments/pffisi/keep_rental_property_or_invest_in_stocks/","originalUrl":"https://www.reddit.com/r/investing/comments/pffisi/keep_rental_property_or_invest_in_stocks/","imageRemote":null,"video":null,"channel":"investing","channelUrl":"https://www.reddit.com/r/investing","author":"crmckinn12","authorUrl":"https://www.reddit.com/user/crmckinn12","authorImageRemote":null,"authorImage":null,"authorSlug":"crmckinn12","score":354,"views":null,"sharedCount":null,"likeCount":null,"sharedContent":null,"parent":{"localize":[{"title":"賃貸物件を維持するか、株に投資するか？","the_new_excerpt":"皆さん、こんにちは。私の状況について、アドバイスやフィードバックをお願いします。私は\n34歳、3人の子供がいて、妻は働いておらず、幸運なことに住宅ローンのない賃貸物件を所有しています。\n幸運にも住宅ローンのない賃貸物件を所有しています。HOA、税金、保険などを差し引いて、月に約1250ドルの収入があります。\nこれにはエアコンの修理などの予想外の出費は含まれていませんが・・・。","locale":"ja"},{"title":"保留出租房产还是投资股票？","the_new_excerpt":"大家好，我想就我的情况寻求一些建议和反馈。我是\n34岁，有3个孩子，妻子不工作，我很幸运地拥有一套出租房产，没有抵押贷款。\n财产，没有抵押贷款。我每月的净收入约为1250美元，其中包括房屋管理费、税金、保险等。\n这还不包括修空调等意外开支......","locale":"zh"},{"title":"保留出租房產還是投資股票？","the_new_excerpt":"大家好，我想就我的情況尋求一些建議和反饋。我是\n34歲，有3個孩子，妻子不工作，我很幸運地擁有一套出租房產，沒有抵押貸款。\n財產，沒有抵押貸款。我每月的淨收入約爲1250美元，其中包括房屋管理費、稅金、保險等。\n這還不包括修空調等意外開支......","locale":"zh-Hant"}]}},{"id":"RedditPost-pfgew5","excerpt":"This started about 4 years ago when my son was 2 years old. I started to\nsupplement his picture books and cartoons with beginner options books and Martin\nShkerli's live videos on how to pick pharmaceutical stocks. Over the course of\nthese years I feel like he has retained absolutely nothing even…","slug":"/reddit/r/wallstreetbets/comments/pfgew5/am_i_the_asshole_for_dropping_my_6_year_old_off/","title":"Am I The Asshole for dropping my 6 year old off at an orphanage for his inability to trade options","date":"September 01, 2021","dateISO":"2021-09-01T01:06:04.000Z","datetime":"2021-09-01 01:06","tags":["wallstreetbets","reddit"],"image":null,"imageAlt":null,"__typename":"SocialMediaPost","provider":"Reddit","thirdPartyId":"pfgew5","url":"https://www.reddit.com/r/wallstreetbets/comments/pfgew5/am_i_the_asshole_for_dropping_my_6_year_old_off/","originalUrl":"https://www.reddit.com/r/wallstreetbets/comments/pfgew5/am_i_the_asshole_for_dropping_my_6_year_old_off/","imageRemote":null,"video":null,"channel":"wallstreetbets","channelUrl":"https://www.reddit.com/r/wallstreetbets","author":"ExactAppearance","authorUrl":"https://www.reddit.com/user/ExactAppearance","authorImageRemote":null,"authorImage":null,"authorSlug":"ExactAppearance","score":27532,"views":null,"sharedCount":null,"likeCount":null,"sharedContent":null,"parent":{"localize":[{"title":"6歳の子供がトレードできないことを理由に孤児院に預けた私はアホですか？","the_new_excerpt":"これが始まったのは4年ほど前、息子が2歳の時でした。私が始めたのは\n絵本やアニメに加えて、初心者向けのオプションブックやマーティン\n製薬会社の銘柄を選ぶためのマーティン・シュケルリのライブ・ビデオで補うようになりました。この数年間で\nこの数年間、息子は何も身につけていないような気がします...。","locale":"ja"},{"title":"我是一个混蛋，因为我的6岁孩子不会交易而把他丢到孤儿院去了。","the_new_excerpt":"这大约始于4年前我儿子2岁的时候。我开始\n在他的图画书和动画片中加入初级期权书籍和马丁\nShkerli关于如何挑选医药股的现场视频。在这几年的时间里\n这些年来，我觉得他完全没有保留任何东西，甚至...","locale":"zh"},{"title":"我是一個混蛋，因爲我的6歲孩子不會交易而把他丟到孤兒院去了。","the_new_excerpt":"這大約始於4年前我兒子2歲的時候。我開始\n在他的圖畫書和動畫片中加入初級期權書籍和馬丁\nShkerli關於如何挑選醫藥股的現場視頻。在這幾年的時間裏\n這些年來，我覺得他完全沒有保留任何東西，甚至...","locale":"zh-Hant"}]}}]}},"pageContext":{"basePath":"/","pageType":"home","tagsFilter":{"date":{"gt":"2000-12-25T10:54:58.000Z"}},"filter":{"date":{"gt":"2000-12-25T10:54:58.000Z"}},"limit":50,"skip":2600,"totalPages":53,"total":2606,"currentPage":53,"maxWidth":1024,"maxHeight":512,"siteMetadata":null,"locale":"zh","hrefLang":"zh-Hans","originalPath":"/page/53","dateFormat":"YYYY-MM-DD"}},"staticQueryHashes":["1239077767","2744905544","3025052997","3280999885"]}