{"componentChunkName":"component---node-modules-gatsby-theme-buzzing-src-gatsby-theme-timeline-templates-posts-query-js","path":"/en/tags/reddit/page/5","result":{"data":{"site":{"siteMetadata":{"title":"国外股市热门","author":"Buzzing.cc","description":"用中文浏览国外股票社区里的热门讨论","keywords":["buzzing","美股","股票","股市"],"siteUrl":"https://stocks.buzzing.cc","telegram":"@stocks_top","iconUrl":"https://stocks.buzzing.cc/avatar.png","defaultSocialImageUrl":null,"social":[{"name":"Reddit Stocks","url":"https://www.reddit.com/r/stocks","external":true},{"name":"Reddit Investing","url":"https://www.reddit.com/r/investing","external":true},{"name":"Charlie Bilello's twitter","url":"https://twitter.com/charliebilello","external":true},{"name":"Buzzing","url":"https://www.buzzing.cc/","external":true}],"menuLinks":[{"name":"每周精选","url":"/issues","external":null}],"disqus":null,"utterances":null,"localize":[{"title":"Buzzing on Stocks","description":"See popular discussions in foreign stock communities in your native language","keywords":["buzzing","stocks","U.S. stocks"],"locale":"en","social":{"name":null,"url":null,"external":null},"menuLinks":[{"name":"Weekly Selection","url":"/en/issues","external":null}]},{"title":"國外股市熱門","description":"用中文瀏覽國外股票社區裡的熱門討論","keywords":["buzzing","美股","股票","股市"],"locale":"zh-Hant","social":null,"menuLinks":[{"name":"每週精選","url":"/zh-Hant/issues","external":null}]},{"title":"米国株式市場人気の話し合います","description":"人気の米国株式市場の話し合いまを日本語で閲覧","keywords":["buzzing","米国株式市場"],"locale":"ja","social":null,"menuLinks":[]}]}},"tagsGroup":{"group":[{"fieldValue":"Bogleheads","totalCount":293},{"fieldValue":"NFTGiveaway","totalCount":1},{"fieldValue":"blessed","totalCount":1},{"fieldValue":"investing","totalCount":258},{"fieldValue":"reddit","totalCount":2013},{"fieldValue":"stocks","totalCount":712},{"fieldValue":"tweet","totalCount":492},{"fieldValue":"wallstreetbets","totalCount":750}]},"allBlogPost":{"nodes":[{"id":"RedditPost-pfn35p","excerpt":"I’m probably going to get a lot of heat for this post, but here goes…\n\nA friend recently expressed anxiety about index investing right now due to ultra\nhigh PE ratios. I shared my approach that he found helpful so I’m sharing with\nothers as well.\n\nI have an automated investment schedule 2x per month…","slug":"/reddit/r/Bogleheads/comments/pfn35p/my_approach_to_timing_the_market/","title":"My approach to “timing” the market","date":"September 01, 2021","dateISO":"2021-09-01T11:44:02.000Z","datetime":"2021-09-01 11:44","tags":["Bogleheads","reddit"],"image":null,"imageAlt":null,"__typename":"SocialMediaPost","provider":"Reddit","thirdPartyId":"pfn35p","url":"https://www.reddit.com/r/Bogleheads/comments/pfn35p/my_approach_to_timing_the_market/","originalUrl":"https://www.reddit.com/r/Bogleheads/comments/pfn35p/my_approach_to_timing_the_market/","imageRemote":null,"video":null,"channel":"Bogleheads","channelUrl":"https://www.reddit.com/r/Bogleheads","author":"tleosf","authorUrl":"https://www.reddit.com/user/tleosf","authorImageRemote":null,"authorImage":null,"authorSlug":"tleosf","score":64,"views":null,"sharedCount":null,"likeCount":null,"sharedContent":null,"parent":{"localize":[{"title":"私の \"タイミング \"の取り方","the_new_excerpt":"おそらくこの投稿には多くの批判が寄せられると思いますが、ここではその内容を紹介します。\n\n友人が最近、超高額なPEレシオを理由に、今のインデックス投資に不安を感じています。\n高いPEレシオのため、インデックス投資に不安を感じていました。私のアプローチを紹介したところ、彼は参考になったようなので、私も他の人に\n他の人にも紹介します。\n\n私は自動化された投資スケジュールを持っており、月に2回...","locale":"ja"},{"title":"我为市场 \"计时 \"的方法","the_new_excerpt":"我可能会因为这个帖子而受到很多批评，但在这里......。\n\n一个朋友最近对指数投资表示焦虑，由于超\n高的市盈率。我分享了我的方法，他觉得很有帮助，所以我也要与其他人分享\n别人也分享一下。\n\n我有一个每月2次的自动投资计划...","locale":"zh"},{"title":"我爲市場 \"計時 \"的方法","the_new_excerpt":"我可能會因爲這個帖子而受到很多批評，但在這裏......。\n\n一個朋友最近對指數投資表示焦慮，由於超\n高的市盈率。我分享了我的方法，他覺得很有幫助，所以我也要與其他人分享\n別人也分享一下。\n\n我有一個每月2次的自動投資計劃...","locale":"zh-Hant"}]}},{"id":"RedditPost-pfojq6","excerpt":"","slug":"/reddit/r/wallstreetbets/comments/pfojq6/every_time_i_buy_something/","title":"Every time I buy something","date":"September 01, 2021","dateISO":"2021-09-01T11:44:02.000Z","datetime":"2021-09-01 11:44","tags":["wallstreetbets","reddit"],"image":null,"imageAlt":null,"__typename":"SocialMediaPost","provider":"Reddit","thirdPartyId":"pfojq6","url":"https://www.reddit.com/r/wallstreetbets/comments/pfojq6/every_time_i_buy_something/","originalUrl":"https://www.reddit.com/r/wallstreetbets/comments/pfojq6/every_time_i_buy_something/","imageRemote":null,"video":{"url":"https://www.redditmedia.com/r/wallstreetbets/comments/pfojq6/every_time_i_buy_something/?ref_source=embed&amp;ref=share&amp;embed=true","embed":true,"width":854,"height":466},"channel":"wallstreetbets","channelUrl":"https://www.reddit.com/r/wallstreetbets","author":"Lozz-_","authorUrl":"https://www.reddit.com/user/Lozz-_","authorImageRemote":null,"authorImage":null,"authorSlug":"Lozz-_","score":1957,"views":null,"sharedCount":null,"likeCount":null,"sharedContent":null,"parent":{"localize":[{"title":"何かを買うたびに","the_new_excerpt":null,"locale":"ja"},{"title":"每次我买东西的时候","the_new_excerpt":null,"locale":"zh"},{"title":"每次我買東西的時候","the_new_excerpt":null,"locale":"zh-Hant"}]}},{"id":"RedditPost-pf9939","excerpt":"I've had some stock in TLRY for a while and am a bit over $200 in the red out of\nabout a $1100 investment. Is there anything out there saying anything good about\nthis that would make a recovery or should I just opt out with where I'm at?","slug":"/reddit/r/stocks/comments/pf9939/is_tlry_going_anywhere/","title":"Is TLRY going anywhere?","date":"September 01, 2021","dateISO":"2021-09-01T11:19:18.000Z","datetime":"2021-09-01 11:19","tags":["stocks","reddit"],"image":null,"imageAlt":null,"__typename":"SocialMediaPost","provider":"Reddit","thirdPartyId":"pf9939","url":"https://www.reddit.com/r/stocks/comments/pf9939/is_tlry_going_anywhere/","originalUrl":"https://www.reddit.com/r/stocks/comments/pf9939/is_tlry_going_anywhere/","imageRemote":null,"video":null,"channel":"stocks","channelUrl":"https://www.reddit.com/r/stocks","author":"Daxter876","authorUrl":"https://www.reddit.com/user/Daxter876","authorImageRemote":null,"authorImage":null,"authorSlug":"Daxter876","score":45,"views":null,"sharedCount":null,"likeCount":null,"sharedContent":null,"parent":{"localize":[{"title":"TLRYはどこへ行くのか？","the_new_excerpt":"私はしばらくの間、TLRYの株を持っていて、約1100ドルの投資から200ドル強の赤字になっています。\n約1100ドルの投資で200ドル強の赤字です。これについて何か良いことを言っている人はいますか？\n挽回できるような何か良いことを言っている人はいないのでしょうか、それとも私は今のままオプトアウトすべきなのでしょうか？","locale":"ja"},{"title":"TLRY会去哪里吗？","the_new_excerpt":"我持有TLRY的一些股票已经有一段时间了，现在亏损200多美元，而我的投资大约是1100美元。\n约1100美元的投资。外面有没有什么关于这个的好的说法？\n有什么好的消息可以让我恢复，还是我应该选择放弃我现在的处境？","locale":"zh"},{"title":"TLRY會去哪裏嗎？","the_new_excerpt":"我持有TLRY的一些股票已經有一段時間了，現在虧損200多美元，而我的投資大約是1100美元。\n約1100美元的投資。外面有沒有什麼關於這個的好的說法？\n有什麼好的消息可以讓我恢復，還是我應該選擇放棄我現在的處境？","locale":"zh-Hant"}]}},{"id":"RedditPost-pfokw3","excerpt":"Source\n[https://finance.yahoo.com/news/aoc-calls-joe-biden-replace-161225656.html]:\n\n> As news of the possible reappointment of Federal Reserve Chair Jerome Powell\n> circulates, we urge President Biden to re-imagine a Federal Reserve focused on\n> eliminating climate risk and advancing racial and…","slug":"/reddit/r/investing/comments/pfokw3/aoc_calls_on_biden_to_replace_powell_what_would_a/","title":"AOC calls on Biden to replace Powell -- What would a Progressive Fed Chair look like?","date":"September 01, 2021","dateISO":"2021-09-01T10:32:48.000Z","datetime":"2021-09-01 10:32","tags":["investing","reddit"],"image":null,"imageAlt":null,"__typename":"SocialMediaPost","provider":"Reddit","thirdPartyId":"pfokw3","url":"https://www.reddit.com/r/investing/comments/pfokw3/aoc_calls_on_biden_to_replace_powell_what_would_a/","originalUrl":"https://www.reddit.com/r/investing/comments/pfokw3/aoc_calls_on_biden_to_replace_powell_what_would_a/","imageRemote":null,"video":null,"channel":"investing","channelUrl":"https://www.reddit.com/r/investing","author":"r2002","authorUrl":"https://www.reddit.com/user/r2002","authorImageRemote":null,"authorImage":null,"authorSlug":"r2002","score":169,"views":null,"sharedCount":null,"likeCount":null,"sharedContent":null,"parent":{"localize":[{"title":"AOC、パウエルの後任にバイデンを要請--プログレッシブなFRB議長の姿とは？","the_new_excerpt":"ソース\n[https://finance.yahoo.com/news/aoc-calls-joe-biden-replace-161225656.html]:\n\n> パウエル連邦準備制度理事会（FRB）議長が再任される可能性があるというニュースが流れている。\n> 私たちはバイデン大統領に対し、以下の点に焦点を当てた連邦準備制度を再構築するよう求めます。\n> 気候変動のリスクを排除し、人種と社会的地位の向上に焦点を当てた連邦準備制度を再構築するよう、バイデン大統領に要請する。","locale":"ja"},{"title":"AOC呼吁拜登取代鲍威尔 -- 一个进步的美联储主席会是什么样子？","the_new_excerpt":"资料来源\n[https://finance.yahoo.com/news/aoc-calls-joe-biden-replace-161225656.html]。\n\n> 随着美联储主席杰罗姆-鲍威尔可能被再次任命的消息\n> 流传，我们敦促拜登总统重新构想一个专注于以下方面的美联储\n> 消除气候风险，推进种族和...","locale":"zh"},{"title":"AOC呼籲拜登取代鮑威爾 -- 一個進步的美聯儲主席會是什麼樣子？","the_new_excerpt":"資料來源\n[https://finance.yahoo.com/news/aoc-calls-joe-biden-replace-161225656.html]。\n\n> 隨着美聯儲主席傑羅姆-鮑威爾可能被再次任命的消息\n> 流傳，我們敦促拜登總統重新構想一個專注於以下方面的美聯儲\n> 消除氣候風險，推進種族和...","locale":"zh-Hant"}]}},{"id":"RedditPost-pfhn3d","excerpt":"","slug":"/reddit/r/wallstreetbets/comments/pfhn3d/gme_has_consistently_spiked_every_t17_days_before/","title":"GME has consistently spiked every T-17 days before quad witching which is what we saw last week on 8-24. Next spike is T-9 before quad witching which is this Friday 9-3.","date":"September 01, 2021","dateISO":"2021-09-01T09:50:19.000Z","datetime":"2021-09-01 09:50","tags":["wallstreetbets","reddit"],"image":null,"imageAlt":null,"__typename":"SocialMediaPost","provider":"Reddit","thirdPartyId":"pfhn3d","url":"https://www.reddit.com/r/wallstreetbets/comments/pfhn3d/gme_has_consistently_spiked_every_t17_days_before/","originalUrl":"https://www.reddit.com/r/wallstreetbets/comments/pfhn3d/gme_has_consistently_spiked_every_t17_days_before/","imageRemote":null,"video":null,"channel":"wallstreetbets","channelUrl":"https://www.reddit.com/r/wallstreetbets","author":"_disguy","authorUrl":"https://www.reddit.com/user/_disguy","authorImageRemote":null,"authorImage":null,"authorSlug":"_disguy","score":2084,"views":null,"sharedCount":null,"likeCount":null,"sharedContent":null,"parent":{"localize":[{"title":"GMEは、先週の8月24日に見られたように、Quad WitchingのT-17日前になると一貫して急上昇している。次のスパイクは、今週の金曜日9-3のように、4回目のウィッチの前のT-9です。","the_new_excerpt":null,"locale":"ja"},{"title":"GME一直在每一个T-17日的四级巫术前飙升，这就是我们上周在8-24日看到的情况。下一次飙升是在四级巫术前的第9天，也就是本周五的9-3。","the_new_excerpt":null,"locale":"zh"},{"title":"GME一直在每一個T-17日的四級巫術前飆升，這就是我們上週在8-24日看到的情況。下一次飆升是在四級巫術前的第9天，也就是本週五的9-3。","the_new_excerpt":null,"locale":"zh-Hant"}]}},{"id":"RedditPost-pfjm06","excerpt":"Why Moderna's 2x Antibody Titer News Is Better For Pfizer\n\n> Breaking news: Moderna vaccine creates twice as many antibodies as Pfizer:\n> research - Source\n> [https://news.yahoo.com/moderna-covid-19-vaccine-doubles-131601816.html]\n\nModerna vs pfizer dose size is…","slug":"/reddit/r/stocks/comments/pfjm06/why_modernas_2x_antibody_titer_news_is_better_for/","title":"Why Moderna's 2x Antibody Titer News Is Better For Pfizer","date":"September 01, 2021","dateISO":"2021-09-01T05:42:34.000Z","datetime":"2021-09-01 05:42","tags":["stocks","reddit"],"image":null,"imageAlt":null,"__typename":"SocialMediaPost","provider":"Reddit","thirdPartyId":"pfjm06","url":"https://www.reddit.com/r/stocks/comments/pfjm06/why_modernas_2x_antibody_titer_news_is_better_for/","originalUrl":"https://www.reddit.com/r/stocks/comments/pfjm06/why_modernas_2x_antibody_titer_news_is_better_for/","imageRemote":null,"video":null,"channel":"stocks","channelUrl":"https://www.reddit.com/r/stocks","author":"BarryWentworth","authorUrl":"https://www.reddit.com/user/BarryWentworth","authorImageRemote":null,"authorImage":null,"authorSlug":"BarryWentworth","score":118,"views":null,"sharedCount":null,"likeCount":null,"sharedContent":null,"parent":{"localize":[{"title":"なぜModernaの2倍の抗体価のニュースがファイザーにとって良いのか","the_new_excerpt":"モデナ社の抗体価2倍ニュースがファイザー社に有利な理由\n\n> 速報です。ModernaワクチンはPfizerの2倍の抗体を作る。\n> 研究 - ソース\n> [https://news.yahoo.com/moderna-covid-19-vaccine-doubles-131601816.html]\n\nModerna vs pfizer dose size is...","locale":"ja"},{"title":"为什么Moderna的2倍抗体滴度消息对辉瑞公司更有利？","the_new_excerpt":"为什么Moderna的2倍抗体滴度消息对辉瑞公司更有利？\n\n> 突发新闻。Moderna疫苗产生的抗体数量是辉瑞公司的两倍。\n> 研究 - 来源\n> [https://news.yahoo.com/moderna-covid-19-vaccine-doubles-131601816.html]\n\nModerna与辉瑞的剂量大小是...","locale":"zh"},{"title":"爲什麼Moderna的2倍抗體滴度消息對輝瑞公司更有利？","the_new_excerpt":"爲什麼Moderna的2倍抗體滴度消息對輝瑞公司更有利？\n\n> 突發新聞。Moderna疫苗產生的抗體數量是輝瑞公司的兩倍。\n> 研究 - 來源\n> [https://news.yahoo.com/moderna-covid-19-vaccine-doubles-131601816.html]\n\nModerna與輝瑞的劑量大小是...","locale":"zh-Hant"}]}},{"id":"RedditPost-pfd7hg","excerpt":"Hello everyone,\n\nI‘m currently well diversified (MSCI World Developed 70% + Emerging Markets\n30%). But the corresponding ETFs include only Large and occasionally Mid Cap\ncompanies. I‘d also like to extend to small cap.\n\nI‘m wondering what would you recommend: US only small cap ETF or a…","slug":"/reddit/r/Bogleheads/comments/pfd7hg/small_cap_etf_us_only_or_world/","title":"Small Cap ETF: US only or World?","date":"September 01, 2021","dateISO":"2021-09-01T03:46:14.000Z","datetime":"2021-09-01 03:46","tags":["Bogleheads","reddit"],"image":null,"imageAlt":null,"__typename":"SocialMediaPost","provider":"Reddit","thirdPartyId":"pfd7hg","url":"https://www.reddit.com/r/Bogleheads/comments/pfd7hg/small_cap_etf_us_only_or_world/","originalUrl":"https://www.reddit.com/r/Bogleheads/comments/pfd7hg/small_cap_etf_us_only_or_world/","imageRemote":null,"video":null,"channel":"Bogleheads","channelUrl":"https://www.reddit.com/r/Bogleheads","author":"Sweet-Zookeepergame","authorUrl":"https://www.reddit.com/user/Sweet-Zookeepergame","authorImageRemote":null,"authorImage":null,"authorSlug":"Sweet-Zookeepergame","score":22,"views":null,"sharedCount":null,"likeCount":null,"sharedContent":null,"parent":{"localize":[{"title":"Small Cap ETF: US only or World?","the_new_excerpt":"皆さんこんにちは。\n\n私は現在、よく分散投資をしています（MSCI世界先進国70％＋新興国\n30%). しかし、対応するETFには大型株しか含まれておらず、たまに中型株も含まれています。\n企業が含まれています。スモールキャップにも広げていきたいと思っています。\n\nあなたは何をお勧めしますか？米国のみのスモールキャップETFか、それとも...。","locale":"ja"},{"title":"小型股ETF：只有美国还是世界？","the_new_excerpt":"大家好。\n\n我目前有很好的多元化投资（MSCI世界发达国家70%+新兴市场\n30%). 但相应的ETF只包括大型公司，偶尔也包括中型公司。\n公司。我也想扩展到小盘股。\n\n我想知道你会推荐什么。只有美国的小盘股ETF，还是美国的小盘股ETF？","locale":"zh"},{"title":"小型股ETF：只有美國還是世界？","the_new_excerpt":"大家好。\n\n我目前有很好的多元化投資（MSCI世界發達國家70%+新興市場\n30%). 但相應的ETF只包括大型公司，偶爾也包括中型公司。\n公司。我也想擴展到小盤股。\n\n我想知道你會推薦什麼。只有美國的小盤股ETF，還是美國的小盤股ETF？","locale":"zh-Hant"}]}},{"id":"RedditPost-pfg7vg","excerpt":"Market cap: ~$27-29b\n\nRevenue (2020): $68b\n\nYTD performance: 2.5% (SPY = 20.6%)\n\n5y performance: 16% (SPY = 107%)\n\nIf all of this \"electric car boom\" is backed by batteries, and Panasonic is one\nof the world's leading automative battery producers, why have they not grown?\n\nMarket Cap:…","slug":"/reddit/r/investing/comments/pfg7vg/why_has_panasonic_pcrfypcrff_traded_poorly_for_5/","title":"Why has Panasonic (PCRFY/PCRFF) traded poorly for 5 years?","date":"September 01, 2021","dateISO":"2021-09-01T03:46:14.000Z","datetime":"2021-09-01 03:46","tags":["investing","reddit"],"image":null,"imageAlt":null,"__typename":"SocialMediaPost","provider":"Reddit","thirdPartyId":"pfg7vg","url":"https://www.reddit.com/r/investing/comments/pfg7vg/why_has_panasonic_pcrfypcrff_traded_poorly_for_5/","originalUrl":"https://www.reddit.com/r/investing/comments/pfg7vg/why_has_panasonic_pcrfypcrff_traded_poorly_for_5/","imageRemote":null,"video":null,"channel":"investing","channelUrl":"https://www.reddit.com/r/investing","author":"waltwhitman83","authorUrl":"https://www.reddit.com/user/waltwhitman83","authorImageRemote":null,"authorImage":null,"authorSlug":"waltwhitman83","score":76,"views":null,"sharedCount":null,"likeCount":null,"sharedContent":null,"parent":{"localize":[{"title":"パナソニック(PCRFY/PCRFF)はなぜ5年間もトレードが悪いのか？","the_new_excerpt":"時価総額は ~$27-29b\n\n売上高（2020年）：68億ドル\n\nYTDパフォーマンス：2.5% (SPY = 20.6%)\n\n5年間の業績：16％（SPY＝107％）。\n\nもし、この「電気自動車ブーム」がすべて電池に支えられているとしたら、パナソニックは世界でも有数の\nパナソニックは世界でも有数の自動車用電池メーカーであるのに、なぜ成長しないのか？\n\n時価総額：...","locale":"ja"},{"title":"为什么松下电器(PCRFY/PCRFF)5年来的交易情况都很差？","the_new_excerpt":"市值。~$27-29b\n\n收入（2020年）：680亿美元\n\n全年业绩：2.5%（SPY=20.6%）。\n\n5年表现：16%（SPY = 107%）。\n\n如果所有这些 \"电动汽车的繁荣 \"是由电池支持的，而松下是一个\n是世界领先的汽车电池生产商之一，为什么他们没有增长？\n\n市值：...","locale":"zh"},{"title":"爲什麼松下電器(PCRFY/PCRFF)5年來的交易情況都很差？","the_new_excerpt":"市值。~$27-29b\n\n收入（2020年）：680億美元\n\n全年業績：2.5%（SPY=20.6%）。\n\n5年表現：16%（SPY = 107%）。\n\n如果所有這些 \"電動汽車的繁榮 \"是由電池支持的，而松下是一個\n是世界領先的汽車電池生產商之一，爲什麼他們沒有增長？\n\n市值：...","locale":"zh-Hant"}]}},{"id":"RedditPost-pfirph","excerpt":"","slug":"/reddit/r/wallstreetbets/comments/pfirph/part_1_largest_wsb_loss_porn_ever_posted/","title":"Part 1: Largest WSB LOSS Porn Ever Posted!!!","date":"September 01, 2021","dateISO":"2021-09-01T03:32:41.000Z","datetime":"2021-09-01 03:32","tags":["wallstreetbets","reddit"],"image":null,"imageAlt":null,"__typename":"SocialMediaPost","provider":"Reddit","thirdPartyId":"pfirph","url":"https://www.reddit.com/r/wallstreetbets/comments/pfirph/part_1_largest_wsb_loss_porn_ever_posted/","originalUrl":"https://www.reddit.com/r/wallstreetbets/comments/pfirph/part_1_largest_wsb_loss_porn_ever_posted/","imageRemote":null,"video":null,"channel":"wallstreetbets","channelUrl":"https://www.reddit.com/r/wallstreetbets","author":"squarexu","authorUrl":"https://www.reddit.com/user/squarexu","authorImageRemote":null,"authorImage":null,"authorSlug":"squarexu","score":9405,"views":null,"sharedCount":null,"likeCount":null,"sharedContent":null,"parent":{"localize":[{"title":"パート1 史上最大のWSB LOSSポルノを掲載!!!","the_new_excerpt":null,"locale":"ja"},{"title":"第一部分。有史以来最大的WSB LOSS Porn发布！!","the_new_excerpt":null,"locale":"zh"},{"title":"第一部分。有史以來最大的WSB LOSS Porn發佈！!","the_new_excerpt":null,"locale":"zh-Hant"}]}},{"id":"RedditPost-pfbreo","excerpt":"\"Units of Lotus and electric-vehicle upstart Nio Inc. signed an investment pact\nas the Chinese owner of the iconic maker of British sports and racing cars seeks\nto transform it into an all-electric brand.\n\nLotus Technology and Nio will explore collaboration in areas including high-end\nintelligent…","slug":"/reddit/r/stocks/comments/pfbreo/nio_and_european_premium_car_brand_lotus_form_ev/","title":"Nio and European premium car brand Lotus form EV partnership","date":"September 01, 2021","dateISO":"2021-09-01T02:52:45.000Z","datetime":"2021-09-01 02:52","tags":["stocks","reddit"],"image":null,"imageAlt":null,"__typename":"SocialMediaPost","provider":"Reddit","thirdPartyId":"pfbreo","url":"https://www.reddit.com/r/stocks/comments/pfbreo/nio_and_european_premium_car_brand_lotus_form_ev/","originalUrl":"https://www.reddit.com/r/stocks/comments/pfbreo/nio_and_european_premium_car_brand_lotus_form_ev/","imageRemote":null,"video":null,"channel":"stocks","channelUrl":"https://www.reddit.com/r/stocks","author":"jjohnjameson","authorUrl":"https://www.reddit.com/user/jjohnjameson","authorImageRemote":null,"authorImage":null,"authorSlug":"jjohnjameson","score":78,"views":null,"sharedCount":null,"likeCount":null,"sharedContent":null,"parent":{"localize":[{"title":"Nioと欧州プレミアムカーブランドLotusがEVパートナーシップを締結","the_new_excerpt":"「ロータスのユニットと電気自動車の新興企業であるNio Inc.が、投資協定を締結しました。\n英国を代表するスポーツカーやレーシングカーのメーカーであるロータスを所有する中国のオーナーは、ロータスを自動車産業に転換しようとしています。\nこれは、英国を代表するスポーツカーやレーシングカーのメーカーであるロータスの中国のオーナーが、ロータスを電気自動車のブランドに変えようとするものです。\n\nロータス・テクノロジー社とNio社は、ハイエンドの電気自動車を含む分野での協力を検討します。\nインテリジェント...","locale":"ja"},{"title":"尼奥与欧洲高档汽车品牌莲花建立电动车合作关系","the_new_excerpt":"\"莲花汽车公司和电动汽车新贵Nio Inc.签署了一项投资协议。\n这家英国标志性跑车和赛车制造商的中国所有者寻求将其转变为全电动品牌。\n将其转变为一个全电动的品牌。\n\n莲花科技公司和尼奥公司将探索在包括高端汽车在内的领域进行合作。\n智能化...","locale":"zh"},{"title":"尼奧與歐洲高檔汽車品牌蓮花建立電動車合作關係","the_new_excerpt":"\"蓮花汽車公司和電動汽車新貴Nio Inc.簽署了一項投資協議。\n這家英國標誌性跑車和賽車製造商的中國所有者尋求將其轉變爲全電動品牌。\n將其轉變爲一個全電動的品牌。\n\n蓮花科技公司和尼奧公司將探索在包括高端汽車在內的領域進行合作。\n智能化...","locale":"zh-Hant"}]}},{"id":"RedditPost-pfdxlp","excerpt":"","slug":"/reddit/r/wallstreetbets/comments/pfdxlp/gme_i_like_patterns_ath_sept_8th_breakout_to_peak/","title":"GME: I like patterns. ATH SEPT 8TH? Breakout to peak = 10 days. Peak to next breakout = 52 days.","date":"September 01, 2021","dateISO":"2021-09-01T02:09:09.000Z","datetime":"2021-09-01 02:09","tags":["wallstreetbets","reddit"],"image":null,"imageAlt":null,"__typename":"SocialMediaPost","provider":"Reddit","thirdPartyId":"pfdxlp","url":"https://www.reddit.com/r/wallstreetbets/comments/pfdxlp/gme_i_like_patterns_ath_sept_8th_breakout_to_peak/","originalUrl":"https://www.reddit.com/r/wallstreetbets/comments/pfdxlp/gme_i_like_patterns_ath_sept_8th_breakout_to_peak/","imageRemote":null,"video":null,"channel":"wallstreetbets","channelUrl":"https://www.reddit.com/r/wallstreetbets","author":"KenekiKen","authorUrl":"https://www.reddit.com/user/KenekiKen","authorImageRemote":null,"authorImage":null,"authorSlug":"KenekiKen","score":1992,"views":null,"sharedCount":null,"likeCount":null,"sharedContent":null,"parent":{"localize":[{"title":"GME：パターンが好きです。ATHは9月8日？ピークまでのブレイクアウト＝10日間。ピークから次のブレイクアウトまで＝52日。","the_new_excerpt":null,"locale":"ja"},{"title":"GME：我喜欢图案。ATH 9月8日？突破到峰值=10天。峰值到下一个突破点=52天。","the_new_excerpt":null,"locale":"zh"},{"title":"GME：我喜歡圖案。ATH 9月8日？突破到峯值=10天。峯值到下一個突破點=52天。","the_new_excerpt":null,"locale":"zh-Hant"}]}},{"id":"RedditPost-pffisi","excerpt":"What’s up everybody, looking for some advice and feedback on my situation. I’m\n34, have 3 kids, wife doesn’t work, and I am fortunate enough to own a rental\nproperty with no mortgage. I net about $1250/month after HOA, taxes, insurance\netc. that doesn’t include unexpected expenses like fixing the AC…","slug":"/reddit/r/investing/comments/pffisi/keep_rental_property_or_invest_in_stocks/","title":"Keep Rental Property or Invest in stocks??","date":"September 01, 2021","dateISO":"2021-09-01T01:06:04.000Z","datetime":"2021-09-01 01:06","tags":["investing","reddit"],"image":null,"imageAlt":null,"__typename":"SocialMediaPost","provider":"Reddit","thirdPartyId":"pffisi","url":"https://www.reddit.com/r/investing/comments/pffisi/keep_rental_property_or_invest_in_stocks/","originalUrl":"https://www.reddit.com/r/investing/comments/pffisi/keep_rental_property_or_invest_in_stocks/","imageRemote":null,"video":null,"channel":"investing","channelUrl":"https://www.reddit.com/r/investing","author":"crmckinn12","authorUrl":"https://www.reddit.com/user/crmckinn12","authorImageRemote":null,"authorImage":null,"authorSlug":"crmckinn12","score":354,"views":null,"sharedCount":null,"likeCount":null,"sharedContent":null,"parent":{"localize":[{"title":"賃貸物件を維持するか、株に投資するか？","the_new_excerpt":"皆さん、こんにちは。私の状況について、アドバイスやフィードバックをお願いします。私は\n34歳、3人の子供がいて、妻は働いておらず、幸運なことに住宅ローンのない賃貸物件を所有しています。\n幸運にも住宅ローンのない賃貸物件を所有しています。HOA、税金、保険などを差し引いて、月に約1250ドルの収入があります。\nこれにはエアコンの修理などの予想外の出費は含まれていませんが・・・。","locale":"ja"},{"title":"保留出租房产还是投资股票？","the_new_excerpt":"大家好，我想就我的情况寻求一些建议和反馈。我是\n34岁，有3个孩子，妻子不工作，我很幸运地拥有一套出租房产，没有抵押贷款。\n财产，没有抵押贷款。我每月的净收入约为1250美元，其中包括房屋管理费、税金、保险等。\n这还不包括修空调等意外开支......","locale":"zh"},{"title":"保留出租房產還是投資股票？","the_new_excerpt":"大家好，我想就我的情況尋求一些建議和反饋。我是\n34歲，有3個孩子，妻子不工作，我很幸運地擁有一套出租房產，沒有抵押貸款。\n財產，沒有抵押貸款。我每月的淨收入約爲1250美元，其中包括房屋管理費、稅金、保險等。\n這還不包括修空調等意外開支......","locale":"zh-Hant"}]}},{"id":"RedditPost-pfgew5","excerpt":"This started about 4 years ago when my son was 2 years old. I started to\nsupplement his picture books and cartoons with beginner options books and Martin\nShkerli's live videos on how to pick pharmaceutical stocks. Over the course of\nthese years I feel like he has retained absolutely nothing even…","slug":"/reddit/r/wallstreetbets/comments/pfgew5/am_i_the_asshole_for_dropping_my_6_year_old_off/","title":"Am I The Asshole for dropping my 6 year old off at an orphanage for his inability to trade options","date":"September 01, 2021","dateISO":"2021-09-01T01:06:04.000Z","datetime":"2021-09-01 01:06","tags":["wallstreetbets","reddit"],"image":null,"imageAlt":null,"__typename":"SocialMediaPost","provider":"Reddit","thirdPartyId":"pfgew5","url":"https://www.reddit.com/r/wallstreetbets/comments/pfgew5/am_i_the_asshole_for_dropping_my_6_year_old_off/","originalUrl":"https://www.reddit.com/r/wallstreetbets/comments/pfgew5/am_i_the_asshole_for_dropping_my_6_year_old_off/","imageRemote":null,"video":null,"channel":"wallstreetbets","channelUrl":"https://www.reddit.com/r/wallstreetbets","author":"ExactAppearance","authorUrl":"https://www.reddit.com/user/ExactAppearance","authorImageRemote":null,"authorImage":null,"authorSlug":"ExactAppearance","score":27532,"views":null,"sharedCount":null,"likeCount":null,"sharedContent":null,"parent":{"localize":[{"title":"6歳の子供がトレードできないことを理由に孤児院に預けた私はアホですか？","the_new_excerpt":"これが始まったのは4年ほど前、息子が2歳の時でした。私が始めたのは\n絵本やアニメに加えて、初心者向けのオプションブックやマーティン\n製薬会社の銘柄を選ぶためのマーティン・シュケルリのライブ・ビデオで補うようになりました。この数年間で\nこの数年間、息子は何も身につけていないような気がします...。","locale":"ja"},{"title":"我是一个混蛋，因为我的6岁孩子不会交易而把他丢到孤儿院去了。","the_new_excerpt":"这大约始于4年前我儿子2岁的时候。我开始\n在他的图画书和动画片中加入初级期权书籍和马丁\nShkerli关于如何挑选医药股的现场视频。在这几年的时间里\n这些年来，我觉得他完全没有保留任何东西，甚至...","locale":"zh"},{"title":"我是一個混蛋，因爲我的6歲孩子不會交易而把他丟到孤兒院去了。","the_new_excerpt":"這大約始於4年前我兒子2歲的時候。我開始\n在他的圖畫書和動畫片中加入初級期權書籍和馬丁\nShkerli關於如何挑選醫藥股的現場視頻。在這幾年的時間裏\n這些年來，我覺得他完全沒有保留任何東西，甚至...","locale":"zh-Hant"}]}}]}},"pageContext":{"basePath":"/","pageType":"tag","tag":"reddit","tagsFilter":{"date":{"gt":"2000-12-25T10:54:58.000Z"}},"filter":{"date":{"gt":"2000-12-25T10:54:58.000Z"},"tags":{"eq":"reddit"}},"limit":500,"skip":2000,"total":2013,"totalPages":5,"currentPage":5,"maxWidth":1024,"maxHeight":512,"siteMetadata":null,"locale":"en","hrefLang":"en-US","originalPath":"/tags/reddit/page/5","dateFormat":"MM/DD/YYYY"}},"staticQueryHashes":["1239077767","2744905544","3025052997","3280999885"]}