{"componentChunkName":"component---node-modules-gatsby-theme-buzzing-src-gatsby-theme-timeline-templates-posts-query-js","path":"/ja/tags/tweet/page/2","result":{"data":{"site":{"siteMetadata":{"title":"国外股市热门","author":"Buzzing.cc","description":"用中文浏览国外股票社区里的热门讨论","keywords":["buzzing","美股","股票","股市"],"siteUrl":"https://stocks.buzzing.cc","telegram":"@stocks_top","iconUrl":"https://stocks.buzzing.cc/avatar.png","defaultSocialImageUrl":null,"social":[{"name":"Reddit Stocks","url":"https://www.reddit.com/r/stocks","external":true},{"name":"Reddit Investing","url":"https://www.reddit.com/r/investing","external":true},{"name":"Charlie Bilello's twitter","url":"https://twitter.com/charliebilello","external":true},{"name":"Buzzing","url":"https://www.buzzing.cc/","external":true}],"menuLinks":[{"name":"每周精选","url":"/issues","external":null}],"disqus":null,"utterances":null,"localize":[{"title":"Buzzing on Stocks","description":"See popular discussions in foreign stock communities in your native language","keywords":["buzzing","stocks","U.S. stocks"],"locale":"en","social":{"name":null,"url":null,"external":null},"menuLinks":[{"name":"Weekly Selection","url":"/en/issues","external":null}]},{"title":"國外股市熱門","description":"用中文瀏覽國外股票社區裡的熱門討論","keywords":["buzzing","美股","股票","股市"],"locale":"zh-Hant","social":null,"menuLinks":[{"name":"每週精選","url":"/zh-Hant/issues","external":null}]},{"title":"米国株式市場人気の話し合います","description":"人気の米国株式市場の話し合いまを日本語で閲覧","keywords":["buzzing","米国株式市場"],"locale":"ja","social":null,"menuLinks":[]}]}},"tagsGroup":{"group":[{"fieldValue":"Bogleheads","totalCount":304},{"fieldValue":"NFTGiveaway","totalCount":1},{"fieldValue":"blessed","totalCount":1},{"fieldValue":"investing","totalCount":269},{"fieldValue":"reddit","totalCount":2087},{"fieldValue":"stocks","totalCount":735},{"fieldValue":"tweet","totalCount":504},{"fieldValue":"wallstreetbets","totalCount":779}]},"allBlogPost":{"nodes":[{"id":"TweetPost-1432877085828259840","excerpt":"","slug":"/tweet/1432877085828259840","title":"FLORIDAN DINER DOESN’T WANT BIDEN VOTERS THERE https://t.co/070LerPT0q","date":"September 01, 2021","dateISO":"2021-09-01T11:44:05.000Z","datetime":"2021-09-01 11:44","tags":["tweet"],"image":null,"imageAlt":"Tweet Image","__typename":"SocialMediaPost","provider":"Twitter","thirdPartyId":"1432877085828259840","url":"https://twitter.com/The_Real_Fly/statuses/1432877085828259840","originalUrl":null,"imageRemote":"https://pbs.twimg.com/media/E-KaHPnWQAEPhvY.jpg","video":null,"channel":null,"channelUrl":null,"author":"The_Real_Fly","authorUrl":"https://twitter.com/The_Real_Fly","authorImageRemote":"https://pbs.twimg.com/profile_images/1365459205453471751/LL4GKo3m.jpg","authorImage":null,"authorSlug":"The_Real_Fly","score":368,"views":null,"sharedCount":36,"likeCount":296,"sharedContent":null,"parent":{"localize":[{"locale":"ja","full_text":"フロリダンのダイナーでは、バイデンの支持者に来てほしくない https://t.co/070LerPT0q","quoted_status_full_text":null,"retweeted_status_full_text":null},{"locale":"zh","full_text":"佛罗里达州的餐馆不希望拜登的选民在那里https://t.co/070LerPT0q","quoted_status_full_text":null,"retweeted_status_full_text":null},{"locale":"zh-Hant","full_text":"佛羅里達州的餐館不希望拜登的選民在那裏https://t.co/070LerPT0q","quoted_status_full_text":null,"retweeted_status_full_text":null}]}},{"id":"TweetPost-1432882114509279239","excerpt":"","slug":"/tweet/1432882114509279239","title":"TALIBAN SHOWS OFF GIFTS LEFT BY US GOVT, INCLUDING MILLIONS OF DOLLARS IN CASH AT 30 SECOND MARK\nhttps://t.co/qiOSEOVNJj","date":"September 01, 2021","dateISO":"2021-09-01T03:35:35.000Z","datetime":"2021-09-01 03:35","tags":["tweet"],"image":null,"imageAlt":"Tweet Image","__typename":"SocialMediaPost","provider":"Twitter","thirdPartyId":"1432882114509279239","url":"https://twitter.com/The_Real_Fly/statuses/1432882114509279239","originalUrl":null,"imageRemote":"https://pbs.twimg.com/ext_tw_video_thumb/1430851849008070656/pu/img/UHK-uwwN13Sj6DLd.jpg","video":null,"channel":null,"channelUrl":null,"author":"The_Real_Fly","authorUrl":"https://twitter.com/The_Real_Fly","authorImageRemote":"https://pbs.twimg.com/profile_images/1365459205453471751/LL4GKo3m.jpg","authorImage":null,"authorSlug":"The_Real_Fly","score":1332,"views":null,"sharedCount":328,"likeCount":676,"sharedContent":null,"parent":{"localize":[{"locale":"ja","full_text":"タリバン、米国政府からの贈り物を披露。30秒後には数百万ドルの現金も。\nhttps://t.co/qiOSEOVNJj","quoted_status_full_text":null,"retweeted_status_full_text":null},{"locale":"zh","full_text":"塔利班展示美国政府留下的礼物，包括30秒处的数百万美元现金\nhttps://t.co/qiOSEOVNJj","quoted_status_full_text":null,"retweeted_status_full_text":null},{"locale":"zh-Hant","full_text":"塔利班展示美國政府留下的禮物，包括30秒處的數百萬美元現金\nhttps://t.co/qiOSEOVNJj","quoted_status_full_text":null,"retweeted_status_full_text":null}]}},{"id":"TweetPost-1432789845265498113","excerpt":"","slug":"/tweet/1432789845265498113","title":"https://t.co/DxjXTWQrKx","date":"September 01, 2021","dateISO":"2021-09-01T02:09:13.000Z","datetime":"2021-09-01 02:09","tags":["tweet"],"image":null,"imageAlt":"Tweet Image","__typename":"SocialMediaPost","provider":"Twitter","thirdPartyId":"1432789845265498113","url":"https://twitter.com/michaelbatnick/statuses/1432789845265498113","originalUrl":null,"imageRemote":"https://pbs.twimg.com/media/E-JKuzSXoAIRs6K.jpg","video":null,"channel":null,"channelUrl":null,"author":"Michael Batnick","authorUrl":"https://twitter.com/michaelbatnick","authorImageRemote":"https://pbs.twimg.com/profile_images/1157350851406716932/rNWwlpQL.jpg","authorImage":null,"authorSlug":"michaelbatnick","score":552,"views":null,"sharedCount":21,"likeCount":510,"sharedContent":null,"parent":{"localize":[{"locale":"ja","full_text":"https://t.co/DxjXTWQrKx","quoted_status_full_text":null,"retweeted_status_full_text":null},{"locale":"zh","full_text":"https://t.co/DxjXTWQrKx","quoted_status_full_text":null,"retweeted_status_full_text":null},{"locale":"zh-Hant","full_text":"https://t.co/DxjXTWQrKx","quoted_status_full_text":null,"retweeted_status_full_text":null}]}},{"id":"TweetPost-1432827517644197893","excerpt":"","slug":"/tweet/1432827517644197893","title":"August\nhttps://t.co/iVN15TDfLk $SPRT: +291%\nSolana $SOL: +195%\nCardano $ADA: +110%\nGamestop $GME: +35%\nEthereum $ETH: +35%\nDogecoin $DOGE: +33%\nAMC $AMC: +27%\nBitcoin $BTC: +13%\nTesla $TSLA: +7%\nNasdaq 100 $QQQ: +4%\nS&amp;P $SPY: +3%\nVol $VIX: -10%\nPeloton $PTON: -15%\nZoom $ZM: -23%","date":"September 01, 2021","dateISO":"2021-09-01T01:06:08.000Z","datetime":"2021-09-01 01:06","tags":["tweet"],"image":null,"imageAlt":null,"__typename":"SocialMediaPost","provider":"Twitter","thirdPartyId":"1432827517644197893","url":"https://twitter.com/charliebilello/statuses/1432827517644197893","originalUrl":null,"imageRemote":null,"video":null,"channel":null,"channelUrl":null,"author":"Charlie Bilello","authorUrl":"https://twitter.com/charliebilello","authorImageRemote":"https://pbs.twimg.com/profile_images/1207655488168574976/N0sQdj76.png","authorImage":null,"authorSlug":"charliebilello","score":908,"views":null,"sharedCount":124,"likeCount":660,"sharedContent":null,"parent":{"localize":[{"locale":"ja","full_text":"8月\nhttps://t.co/iVN15TDfLk $SPRT： +291％の増加\nソラナ $SOL： +195\nカルダノ $ADA: +110%\nゲームストップ $GME: +35%\nイーサリアム $ETH： +35\nドッグコイン $DOGE +33%\nAMC $AMC: +27%\nビットコイン $BTC: +13\nテスラ $TSLA： +7\nナスダック100 $QQQ: +4\nS&amp;P $SPY: +3%\nボル VIX $VIX： -10\nペロトン $PTON： -15\nズーム $ZM: -23","quoted_status_full_text":null,"retweeted_status_full_text":null},{"locale":"zh","full_text":"八月\nhttps://t.co/iVN15TDfLk $SPRT: +291%\nSolana $SOL: +195%\nCardano $ADA: +110%\nGamestop $GME: +35%\n以太坊 $ETH: +35\nDogecoin $DOGE: +33%\nAMC $AMC: +27%\n比特币 $BTC: +13\n特斯拉 $TSLA: +7%\n纳斯达克100指数 $QQQ: +4%\nS&amp;P $SPY: +3%\nVol $VIX: -10%\nPeloton $PTON: -15\nZoom $ZM: -23","quoted_status_full_text":null,"retweeted_status_full_text":null},{"locale":"zh-Hant","full_text":"八月\nhttps://t.co/iVN15TDfLk $SPRT: +291%\nSolana $SOL: +195%\nCardano $ADA: +110%\nGamestop $GME: +35%\n以太坊 $ETH: +35\nDogecoin $DOGE: +33%\nAMC $AMC: +27%\n比特幣 $BTC: +13\n特斯拉 $TSLA: +7%\n納斯達克100指數 $QQQ: +4%\nS&amp;P $SPY: +3%\nVol $VIX: -10%\nPeloton $PTON: -15\nZoom $ZM: -23","quoted_status_full_text":null,"retweeted_status_full_text":null}]}}]}},"pageContext":{"basePath":"/","pageType":"tag","tag":"tweet","tagsFilter":{"date":{"gt":"2000-12-25T10:54:58.000Z"}},"filter":{"date":{"gt":"2000-12-25T10:54:58.000Z"},"tags":{"eq":"tweet"}},"limit":500,"skip":500,"total":504,"totalPages":2,"currentPage":2,"maxWidth":1024,"maxHeight":512,"siteMetadata":null,"locale":"ja","hrefLang":"ja-JA","originalPath":"/tags/tweet/page/2","dateFormat":"YYYY-MM-DD"}},"staticQueryHashes":["1239077767","2744905544","3025052997","3280999885"]}