{"componentChunkName":"component---node-modules-gatsby-theme-buzzing-src-gatsby-theme-timeline-templates-posts-query-js","path":"/tags/tweet/page/2","result":{"data":{"site":{"siteMetadata":{"title":"国外股市热门","author":"Buzzing.cc","description":"用中文浏览国外股票社区里的热门讨论","keywords":["buzzing","美股","股票","股市"],"siteUrl":"https://stocks.buzzing.cc","telegram":"@stocks_top","iconUrl":"https://stocks.buzzing.cc/avatar.png","defaultSocialImageUrl":null,"social":[{"name":"Reddit Stocks","url":"https://www.reddit.com/r/stocks","external":true},{"name":"Reddit Investing","url":"https://www.reddit.com/r/investing","external":true},{"name":"Charlie Bilello's twitter","url":"https://twitter.com/charliebilello","external":true},{"name":"Buzzing","url":"https://www.buzzing.cc/","external":true}],"menuLinks":[{"name":"每周精选","url":"/issues","external":null}],"disqus":null,"utterances":null,"localize":[{"title":"Buzzing on Stocks","description":"See popular discussions in foreign stock communities in your native language","keywords":["buzzing","stocks","U.S. stocks"],"locale":"en","social":{"name":null,"url":null,"external":null},"menuLinks":[{"name":"Weekly Selection","url":"/en/issues","external":null}]},{"title":"國外股市熱門","description":"用中文瀏覽國外股票社區裡的熱門討論","keywords":["buzzing","美股","股票","股市"],"locale":"zh-Hant","social":null,"menuLinks":[{"name":"每週精選","url":"/zh-Hant/issues","external":null}]},{"title":"米国株式市場人気の話し合います","description":"人気の米国株式市場の話し合いまを日本語で閲覧","keywords":["buzzing","米国株式市場"],"locale":"ja","social":null,"menuLinks":[]}]}},"tagsGroup":{"group":[{"fieldValue":"Bogleheads","totalCount":307},{"fieldValue":"NFTGiveaway","totalCount":1},{"fieldValue":"blessed","totalCount":1},{"fieldValue":"investing","totalCount":271},{"fieldValue":"reddit","totalCount":2115},{"fieldValue":"stocks","totalCount":748},{"fieldValue":"tweet","totalCount":514},{"fieldValue":"wallstreetbets","totalCount":789}]},"allBlogPost":{"nodes":[{"id":"TweetPost-1433267282407567360","excerpt":"","slug":"/tweet/1433267282407567360","title":"ISRAEL’S 3RD SHOT COVID BOOSTER A STUNNING SUCCESS https://t.co/8jsiywDiPi","date":"September 02, 2021","dateISO":"2021-09-02T10:43:08.000Z","datetime":"2021-09-02 10:43","tags":["tweet"],"image":null,"imageAlt":"Tweet Image","__typename":"SocialMediaPost","provider":"Twitter","thirdPartyId":"1433267282407567360","url":"https://twitter.com/The_Real_Fly/statuses/1433267282407567360","originalUrl":null,"imageRemote":"https://pbs.twimg.com/media/E-P8_xXXoAU7Pg-.jpg","video":null,"channel":null,"channelUrl":null,"author":"The_Real_Fly","authorUrl":"https://twitter.com/The_Real_Fly","authorImageRemote":"https://pbs.twimg.com/profile_images/1365459205453471751/LL4GKo3m.jpg","authorImage":null,"authorSlug":"The_Real_Fly","score":531,"views":null,"sharedCount":98,"likeCount":335,"sharedContent":null,"parent":{"localize":[{"locale":"ja","full_text":"イスラエルの3rdショット「Covid booster」が見事に成功 https://t.co/8jsiywDiPi","quoted_status_full_text":null,"retweeted_status_full_text":null},{"locale":"zh","full_text":"以色列的第三针科维德助推器取得了惊人的成功 https://t.co/8jsiywDiPi","quoted_status_full_text":null,"retweeted_status_full_text":null},{"locale":"zh-Hant","full_text":"以色列的第三針科維德助推器取得了驚人的成功 https://t.co/8jsiywDiPi","quoted_status_full_text":null,"retweeted_status_full_text":null}]}},{"id":"TweetPost-1433296718372671488","excerpt":"","slug":"/tweet/1433296718372671488","title":"Pfizer Is Now Developing A Twice-Per-Day COVID Pill That Must Be Taken Alongside Vaccines\n\nPfizer is so confident the pill will be approved and likely mandated that it has started production before the end of clinical trials $PFE","date":"September 02, 2021","dateISO":"2021-09-02T10:43:08.000Z","datetime":"2021-09-02 10:43","tags":["tweet"],"image":null,"imageAlt":null,"__typename":"SocialMediaPost","provider":"Twitter","thirdPartyId":"1433296718372671488","url":"https://twitter.com/The_Real_Fly/statuses/1433296718372671488","originalUrl":null,"imageRemote":null,"video":null,"channel":null,"channelUrl":null,"author":"The_Real_Fly","authorUrl":"https://twitter.com/The_Real_Fly","authorImageRemote":"https://pbs.twimg.com/profile_images/1365459205453471751/LL4GKo3m.jpg","authorImage":null,"authorSlug":"The_Real_Fly","score":701,"views":null,"sharedCount":139,"likeCount":423,"sharedContent":null,"parent":{"localize":[{"locale":"ja","full_text":"ファイザーが開発中の1日2回服用のCOVIDピルはワクチンとの併用が必須\n\nファイザー社は、この薬が承認され、義務化される可能性が高いと確信しており、臨床試験終了前に製造を開始した $PFE","quoted_status_full_text":null,"retweeted_status_full_text":null},{"locale":"zh","full_text":"辉瑞公司现在正在开发一种每天两次的COVID药片，必须与疫苗同时服用。\n\n辉瑞公司对这种药片获得批准并可能被强制使用非常有信心，因此在临床试验结束前就开始生产了 $PFE","quoted_status_full_text":null,"retweeted_status_full_text":null},{"locale":"zh-Hant","full_text":"輝瑞公司現在正在開發一種每天兩次的COVID藥片，必須與疫苗同時服用。\n\n輝瑞公司對這種藥片獲得批准並可能被強制使用非常有信心，因此在臨牀試驗結束前就開始生產了 $PFE","quoted_status_full_text":null,"retweeted_status_full_text":null}]}},{"id":"TweetPost-1433113017902841859","excerpt":"","slug":"/tweet/1433113017902841859","title":"The Fed needs to cut gas rates. https://t.co/F8ElLnP4ch","date":"September 02, 2021","dateISO":"2021-09-02T08:39:20.000Z","datetime":"2021-09-02 08:39","tags":["tweet"],"image":null,"imageAlt":"Tweet Image","__typename":"SocialMediaPost","provider":"Twitter","thirdPartyId":"1433113017902841859","url":"https://twitter.com/michaelbatnick/statuses/1433113017902841859","originalUrl":null,"imageRemote":"https://pbs.twimg.com/media/E-NwVPJXMAYPgjc.jpg","video":null,"channel":null,"channelUrl":null,"author":"Michael Batnick","authorUrl":"https://twitter.com/michaelbatnick","authorImageRemote":"https://pbs.twimg.com/profile_images/1157350851406716932/rNWwlpQL.jpg","authorImage":null,"authorSlug":"michaelbatnick","score":412,"views":null,"sharedCount":18,"likeCount":376,"sharedContent":null,"parent":{"localize":[{"locale":"ja","full_text":"FRBはガス料金を引き下げる必要がある。https://t.co/F8ElLnP4ch","quoted_status_full_text":null,"retweeted_status_full_text":null},{"locale":"zh","full_text":"美联储需要削减天然气利率。https://t.co/F8ElLnP4ch","quoted_status_full_text":null,"retweeted_status_full_text":null},{"locale":"zh-Hant","full_text":"美聯儲需要削減天然氣利率。https://t.co/F8ElLnP4ch","quoted_status_full_text":null,"retweeted_status_full_text":null}]}},{"id":"TweetPost-1433272320412499970","excerpt":"","slug":"/tweet/1433272320412499970","title":"STATE OF EMERGENCY DECLARED IN NYC\nhttps://t.co/ziWvdOoRyq","date":"September 02, 2021","dateISO":"2021-09-02T04:49:52.000Z","datetime":"2021-09-02 04:49","tags":["tweet"],"image":null,"imageAlt":"Tweet Image","__typename":"SocialMediaPost","provider":"Twitter","thirdPartyId":"1433272320412499970","url":"https://twitter.com/The_Real_Fly/statuses/1433272320412499970","originalUrl":null,"imageRemote":"https://pbs.twimg.com/ext_tw_video_thumb/1433270877966249986/pu/img/OYZANYem8XXHVmB_.jpg","video":null,"channel":null,"channelUrl":null,"author":"The_Real_Fly","authorUrl":"https://twitter.com/The_Real_Fly","authorImageRemote":"https://pbs.twimg.com/profile_images/1365459205453471751/LL4GKo3m.jpg","authorImage":null,"authorSlug":"The_Real_Fly","score":410,"views":null,"sharedCount":77,"likeCount":256,"sharedContent":null,"parent":{"localize":[{"locale":"ja","full_text":"ニューヨーク市で緊急事態宣言\nhttps://t.co/ziWvdOoRyq","quoted_status_full_text":null,"retweeted_status_full_text":null},{"locale":"zh","full_text":"纽约市宣布进入紧急状态\nhttps://t.co/ziWvdOoRyq","quoted_status_full_text":null,"retweeted_status_full_text":null},{"locale":"zh-Hant","full_text":"紐約市宣佈進入緊急狀態\nhttps://t.co/ziWvdOoRyq","quoted_status_full_text":null,"retweeted_status_full_text":null}]}},{"id":"TweetPost-1433169798704386053","excerpt":"","slug":"/tweet/1433169798704386053","title":"Las Vegas Sands is getting removed from the S&amp;P 500. It will be replaced by Chromie Squiggle #2172 https://t.co/FQeV7tHw35","date":"September 02, 2021","dateISO":"2021-09-02T02:39:58.000Z","datetime":"2021-09-02 02:39","tags":["tweet"],"image":null,"imageAlt":"Tweet Image","__typename":"SocialMediaPost","provider":"Twitter","thirdPartyId":"1433169798704386053","url":"https://twitter.com/michaelbatnick/statuses/1433169798704386053","originalUrl":null,"imageRemote":"https://pbs.twimg.com/media/E-OkMwmXsAcMo0e.jpg","video":null,"channel":null,"channelUrl":null,"author":"Michael Batnick","authorUrl":"https://twitter.com/michaelbatnick","authorImageRemote":"https://pbs.twimg.com/profile_images/1157350851406716932/rNWwlpQL.jpg","authorImage":null,"authorSlug":"michaelbatnick","score":553,"views":null,"sharedCount":18,"likeCount":517,"sharedContent":null,"parent":{"localize":[{"locale":"ja","full_text":"Las Vegas SandsがS&amp;P 500から除外されます。代わりにChromie Squiggle #2172 https://t.co/FQeV7tHw35 が採用されます。","quoted_status_full_text":null,"retweeted_status_full_text":null},{"locale":"zh","full_text":"拉斯维加斯金沙正在从S&amp;P 500指数中被剔除。它将被Chromie Squiggle #2172取代https://t.co/FQeV7tHw35。","quoted_status_full_text":null,"retweeted_status_full_text":null},{"locale":"zh-Hant","full_text":"拉斯維加斯金沙正在從S&amp;P 500指數中被剔除。它將被Chromie Squiggle #2172取代https://t.co/FQeV7tHw35。","quoted_status_full_text":null,"retweeted_status_full_text":null}]}},{"id":"TweetPost-1433236393547997188","excerpt":"","slug":"/tweet/1433236393547997188","title":"Florida to issue $5,000 fines for anyone requiring proof of vaccination","date":"September 02, 2021","dateISO":"2021-09-02T02:39:58.000Z","datetime":"2021-09-02 02:39","tags":["tweet"],"image":null,"imageAlt":null,"__typename":"SocialMediaPost","provider":"Twitter","thirdPartyId":"1433236393547997188","url":"https://twitter.com/The_Real_Fly/statuses/1433236393547997188","originalUrl":null,"imageRemote":null,"video":null,"channel":null,"channelUrl":null,"author":"The_Real_Fly","authorUrl":"https://twitter.com/The_Real_Fly","authorImageRemote":"https://pbs.twimg.com/profile_images/1365459205453471751/LL4GKo3m.jpg","authorImage":null,"authorSlug":"The_Real_Fly","score":1826,"views":null,"sharedCount":178,"likeCount":1470,"sharedContent":null,"parent":{"localize":[{"locale":"ja","full_text":"フロリダ州、ワクチン接種の証明書を要求する者に5,000ドルの罰金を科す","quoted_status_full_text":null,"retweeted_status_full_text":null},{"locale":"zh","full_text":"佛罗里达州将对要求提供疫苗接种证明的人开出5000美元的罚单","quoted_status_full_text":null,"retweeted_status_full_text":null},{"locale":"zh-Hant","full_text":"佛羅里達州將對要求提供疫苗接種證明的人開出5000美元的罰單","quoted_status_full_text":null,"retweeted_status_full_text":null}]}},{"id":"TweetPost-1433248264153878529","excerpt":"","slug":"/tweet/1433248264153878529","title":"Current state of US media https://t.co/YWEQnbVCot","date":"September 02, 2021","dateISO":"2021-09-02T02:39:58.000Z","datetime":"2021-09-02 02:39","tags":["tweet"],"image":null,"imageAlt":"Tweet Image","__typename":"SocialMediaPost","provider":"Twitter","thirdPartyId":"1433248264153878529","url":"https://twitter.com/The_Real_Fly/statuses/1433248264153878529","originalUrl":null,"imageRemote":"https://pbs.twimg.com/media/E-Prsy_XIAEq-t1.jpg","video":null,"channel":null,"channelUrl":null,"author":"The_Real_Fly","authorUrl":"https://twitter.com/The_Real_Fly","authorImageRemote":"https://pbs.twimg.com/profile_images/1365459205453471751/LL4GKo3m.jpg","authorImage":null,"authorSlug":"The_Real_Fly","score":1530,"views":null,"sharedCount":179,"likeCount":1172,"sharedContent":null,"parent":{"localize":[{"locale":"ja","full_text":"米国メディアの現状 https://t.co/YWEQnbVCot","quoted_status_full_text":null,"retweeted_status_full_text":null},{"locale":"zh","full_text":"美国媒体的现状 https://t.co/YWEQnbVCot","quoted_status_full_text":null,"retweeted_status_full_text":null},{"locale":"zh-Hant","full_text":"美國媒體的現狀 https://t.co/YWEQnbVCot","quoted_status_full_text":null,"retweeted_status_full_text":null}]}},{"id":"TweetPost-1432898967604498434","excerpt":"","slug":"/tweet/1432898967604498434","title":"Unvaccinated people shouldn't travel over Labor Day: CDC\n\nStay home you filth","date":"September 01, 2021","dateISO":"2021-09-01T23:38:05.000Z","datetime":"2021-09-01 23:38","tags":["tweet"],"image":null,"imageAlt":null,"__typename":"SocialMediaPost","provider":"Twitter","thirdPartyId":"1432898967604498434","url":"https://twitter.com/The_Real_Fly/statuses/1432898967604498434","originalUrl":null,"imageRemote":null,"video":null,"channel":null,"channelUrl":null,"author":"The_Real_Fly","authorUrl":"https://twitter.com/The_Real_Fly","authorImageRemote":"https://pbs.twimg.com/profile_images/1365459205453471751/LL4GKo3m.jpg","authorImage":null,"authorSlug":"The_Real_Fly","score":306,"views":null,"sharedCount":27,"likeCount":252,"sharedContent":null,"parent":{"localize":[{"locale":"ja","full_text":"ワクチンを接種していない人は、レイバーデーに旅行してはいけません。CDC\n\n家にいるべきだ","quoted_status_full_text":null,"retweeted_status_full_text":null},{"locale":"zh","full_text":"未接种疫苗的人不应该在劳动节期间旅行。中国疾病预防控制中心\n\n呆在家里，你这个肮脏的家伙","quoted_status_full_text":null,"retweeted_status_full_text":null},{"locale":"zh-Hant","full_text":"未接種疫苗的人不應該在勞動節期間旅行。中國疾病預防控制中心\n\n呆在家裏，你這個骯髒的傢伙","quoted_status_full_text":null,"retweeted_status_full_text":null}]}},{"id":"TweetPost-1433106022562942992","excerpt":"","slug":"/tweet/1433106022562942992","title":"https://t.co/SYDW0Jtheu","date":"September 01, 2021","dateISO":"2021-09-01T18:49:17.000Z","datetime":"2021-09-01 18:49","tags":["tweet"],"image":null,"imageAlt":"Tweet Image","__typename":"SocialMediaPost","provider":"Twitter","thirdPartyId":"1433106022562942992","url":"https://twitter.com/michaelbatnick/statuses/1433106022562942992","originalUrl":null,"imageRemote":"https://pbs.twimg.com/media/E-NqUdYWYAIX1XG.jpg","video":null,"channel":null,"channelUrl":null,"author":"Michael Batnick","authorUrl":"https://twitter.com/michaelbatnick","authorImageRemote":"https://pbs.twimg.com/profile_images/1157350851406716932/rNWwlpQL.jpg","authorImage":null,"authorSlug":"michaelbatnick","score":847,"views":null,"sharedCount":56,"likeCount":735,"sharedContent":null,"parent":{"localize":[{"locale":"ja","full_text":"https://t.co/SYDW0Jtheu","quoted_status_full_text":null,"retweeted_status_full_text":null},{"locale":"zh","full_text":"https://t.co/SYDW0Jtheu","quoted_status_full_text":null,"retweeted_status_full_text":null},{"locale":"zh-Hant","full_text":"https://t.co/SYDW0Jtheu","quoted_status_full_text":null,"retweeted_status_full_text":null}]}},{"id":"TweetPost-1433034609835532295","excerpt":"","slug":"/tweet/1433034609835532295","title":"Covid-19 spike protein binds to and changes cells in the heart - British Heart Foundation","date":"September 01, 2021","dateISO":"2021-09-01T17:35:53.000Z","datetime":"2021-09-01 17:35","tags":["tweet"],"image":null,"imageAlt":null,"__typename":"SocialMediaPost","provider":"Twitter","thirdPartyId":"1433034609835532295","url":"https://twitter.com/The_Real_Fly/statuses/1433034609835532295","originalUrl":null,"imageRemote":null,"video":null,"channel":null,"channelUrl":null,"author":"The_Real_Fly","authorUrl":"https://twitter.com/The_Real_Fly","authorImageRemote":"https://pbs.twimg.com/profile_images/1365459205453471751/LL4GKo3m.jpg","authorImage":null,"authorSlug":"The_Real_Fly","score":393,"views":null,"sharedCount":81,"likeCount":231,"sharedContent":null,"parent":{"localize":[{"locale":"ja","full_text":"Covid-19スパイクタンパク質が心臓の細胞に結合して変化する - British Heart Foundation","quoted_status_full_text":null,"retweeted_status_full_text":null},{"locale":"zh","full_text":"Covid-19尖峰蛋白与心脏中的细胞结合并发生变化 - 英国心脏基金会","quoted_status_full_text":null,"retweeted_status_full_text":null},{"locale":"zh-Hant","full_text":"Covid-19尖峯蛋白與心臟中的細胞結合併發生變化 - 英國心臟基金會","quoted_status_full_text":null,"retweeted_status_full_text":null}]}},{"id":"TweetPost-1432877085828259840","excerpt":"","slug":"/tweet/1432877085828259840","title":"FLORIDAN DINER DOESN’T WANT BIDEN VOTERS THERE https://t.co/070LerPT0q","date":"September 01, 2021","dateISO":"2021-09-01T11:44:05.000Z","datetime":"2021-09-01 11:44","tags":["tweet"],"image":null,"imageAlt":"Tweet Image","__typename":"SocialMediaPost","provider":"Twitter","thirdPartyId":"1432877085828259840","url":"https://twitter.com/The_Real_Fly/statuses/1432877085828259840","originalUrl":null,"imageRemote":"https://pbs.twimg.com/media/E-KaHPnWQAEPhvY.jpg","video":null,"channel":null,"channelUrl":null,"author":"The_Real_Fly","authorUrl":"https://twitter.com/The_Real_Fly","authorImageRemote":"https://pbs.twimg.com/profile_images/1365459205453471751/LL4GKo3m.jpg","authorImage":null,"authorSlug":"The_Real_Fly","score":368,"views":null,"sharedCount":36,"likeCount":296,"sharedContent":null,"parent":{"localize":[{"locale":"ja","full_text":"フロリダンのダイナーでは、バイデンの支持者に来てほしくない https://t.co/070LerPT0q","quoted_status_full_text":null,"retweeted_status_full_text":null},{"locale":"zh","full_text":"佛罗里达州的餐馆不希望拜登的选民在那里https://t.co/070LerPT0q","quoted_status_full_text":null,"retweeted_status_full_text":null},{"locale":"zh-Hant","full_text":"佛羅里達州的餐館不希望拜登的選民在那裏https://t.co/070LerPT0q","quoted_status_full_text":null,"retweeted_status_full_text":null}]}},{"id":"TweetPost-1432882114509279239","excerpt":"","slug":"/tweet/1432882114509279239","title":"TALIBAN SHOWS OFF GIFTS LEFT BY US GOVT, INCLUDING MILLIONS OF DOLLARS IN CASH AT 30 SECOND MARK\nhttps://t.co/qiOSEOVNJj","date":"September 01, 2021","dateISO":"2021-09-01T03:35:35.000Z","datetime":"2021-09-01 03:35","tags":["tweet"],"image":null,"imageAlt":"Tweet Image","__typename":"SocialMediaPost","provider":"Twitter","thirdPartyId":"1432882114509279239","url":"https://twitter.com/The_Real_Fly/statuses/1432882114509279239","originalUrl":null,"imageRemote":"https://pbs.twimg.com/ext_tw_video_thumb/1430851849008070656/pu/img/UHK-uwwN13Sj6DLd.jpg","video":null,"channel":null,"channelUrl":null,"author":"The_Real_Fly","authorUrl":"https://twitter.com/The_Real_Fly","authorImageRemote":"https://pbs.twimg.com/profile_images/1365459205453471751/LL4GKo3m.jpg","authorImage":null,"authorSlug":"The_Real_Fly","score":1332,"views":null,"sharedCount":328,"likeCount":676,"sharedContent":null,"parent":{"localize":[{"locale":"ja","full_text":"タリバン、米国政府からの贈り物を披露。30秒後には数百万ドルの現金も。\nhttps://t.co/qiOSEOVNJj","quoted_status_full_text":null,"retweeted_status_full_text":null},{"locale":"zh","full_text":"塔利班展示美国政府留下的礼物，包括30秒处的数百万美元现金\nhttps://t.co/qiOSEOVNJj","quoted_status_full_text":null,"retweeted_status_full_text":null},{"locale":"zh-Hant","full_text":"塔利班展示美國政府留下的禮物，包括30秒處的數百萬美元現金\nhttps://t.co/qiOSEOVNJj","quoted_status_full_text":null,"retweeted_status_full_text":null}]}},{"id":"TweetPost-1432789845265498113","excerpt":"","slug":"/tweet/1432789845265498113","title":"https://t.co/DxjXTWQrKx","date":"September 01, 2021","dateISO":"2021-09-01T02:09:13.000Z","datetime":"2021-09-01 02:09","tags":["tweet"],"image":null,"imageAlt":"Tweet Image","__typename":"SocialMediaPost","provider":"Twitter","thirdPartyId":"1432789845265498113","url":"https://twitter.com/michaelbatnick/statuses/1432789845265498113","originalUrl":null,"imageRemote":"https://pbs.twimg.com/media/E-JKuzSXoAIRs6K.jpg","video":null,"channel":null,"channelUrl":null,"author":"Michael Batnick","authorUrl":"https://twitter.com/michaelbatnick","authorImageRemote":"https://pbs.twimg.com/profile_images/1157350851406716932/rNWwlpQL.jpg","authorImage":null,"authorSlug":"michaelbatnick","score":552,"views":null,"sharedCount":21,"likeCount":510,"sharedContent":null,"parent":{"localize":[{"locale":"ja","full_text":"https://t.co/DxjXTWQrKx","quoted_status_full_text":null,"retweeted_status_full_text":null},{"locale":"zh","full_text":"https://t.co/DxjXTWQrKx","quoted_status_full_text":null,"retweeted_status_full_text":null},{"locale":"zh-Hant","full_text":"https://t.co/DxjXTWQrKx","quoted_status_full_text":null,"retweeted_status_full_text":null}]}},{"id":"TweetPost-1432827517644197893","excerpt":"","slug":"/tweet/1432827517644197893","title":"August\nhttps://t.co/iVN15TDfLk $SPRT: +291%\nSolana $SOL: +195%\nCardano $ADA: +110%\nGamestop $GME: +35%\nEthereum $ETH: +35%\nDogecoin $DOGE: +33%\nAMC $AMC: +27%\nBitcoin $BTC: +13%\nTesla $TSLA: +7%\nNasdaq 100 $QQQ: +4%\nS&amp;P $SPY: +3%\nVol $VIX: -10%\nPeloton $PTON: -15%\nZoom $ZM: -23%","date":"September 01, 2021","dateISO":"2021-09-01T01:06:08.000Z","datetime":"2021-09-01 01:06","tags":["tweet"],"image":null,"imageAlt":null,"__typename":"SocialMediaPost","provider":"Twitter","thirdPartyId":"1432827517644197893","url":"https://twitter.com/charliebilello/statuses/1432827517644197893","originalUrl":null,"imageRemote":null,"video":null,"channel":null,"channelUrl":null,"author":"Charlie Bilello","authorUrl":"https://twitter.com/charliebilello","authorImageRemote":"https://pbs.twimg.com/profile_images/1207655488168574976/N0sQdj76.png","authorImage":null,"authorSlug":"charliebilello","score":908,"views":null,"sharedCount":124,"likeCount":660,"sharedContent":null,"parent":{"localize":[{"locale":"ja","full_text":"8月\nhttps://t.co/iVN15TDfLk $SPRT： +291％の増加\nソラナ $SOL： +195\nカルダノ $ADA: +110%\nゲームストップ $GME: +35%\nイーサリアム $ETH： +35\nドッグコイン $DOGE +33%\nAMC $AMC: +27%\nビットコイン $BTC: +13\nテスラ $TSLA： +7\nナスダック100 $QQQ: +4\nS&amp;P $SPY: +3%\nボル VIX $VIX： -10\nペロトン $PTON： -15\nズーム $ZM: -23","quoted_status_full_text":null,"retweeted_status_full_text":null},{"locale":"zh","full_text":"八月\nhttps://t.co/iVN15TDfLk $SPRT: +291%\nSolana $SOL: +195%\nCardano $ADA: +110%\nGamestop $GME: +35%\n以太坊 $ETH: +35\nDogecoin $DOGE: +33%\nAMC $AMC: +27%\n比特币 $BTC: +13\n特斯拉 $TSLA: +7%\n纳斯达克100指数 $QQQ: +4%\nS&amp;P $SPY: +3%\nVol $VIX: -10%\nPeloton $PTON: -15\nZoom $ZM: -23","quoted_status_full_text":null,"retweeted_status_full_text":null},{"locale":"zh-Hant","full_text":"八月\nhttps://t.co/iVN15TDfLk $SPRT: +291%\nSolana $SOL: +195%\nCardano $ADA: +110%\nGamestop $GME: +35%\n以太坊 $ETH: +35\nDogecoin $DOGE: +33%\nAMC $AMC: +27%\n比特幣 $BTC: +13\n特斯拉 $TSLA: +7%\n納斯達克100指數 $QQQ: +4%\nS&amp;P $SPY: +3%\nVol $VIX: -10%\nPeloton $PTON: -15\nZoom $ZM: -23","quoted_status_full_text":null,"retweeted_status_full_text":null}]}}]}},"pageContext":{"basePath":"/","pageType":"tag","tag":"tweet","tagsFilter":{"date":{"gt":"2000-12-25T10:54:58.000Z"}},"filter":{"date":{"gt":"2000-12-25T10:54:58.000Z"},"tags":{"eq":"tweet"}},"limit":500,"skip":500,"total":514,"totalPages":2,"currentPage":2,"maxWidth":1024,"maxHeight":512,"siteMetadata":null,"locale":"zh","hrefLang":"zh-Hans","originalPath":"/tags/tweet/page/2","dateFormat":"YYYY-MM-DD"}},"staticQueryHashes":["1239077767","2744905544","3025052997","3280999885"]}