{"componentChunkName":"component---node-modules-gatsby-theme-buzzing-src-gatsby-theme-timeline-templates-posts-query-js","path":"/en/tags/wallstreetbets/page/9","result":{"data":{"site":{"siteMetadata":{"title":"国外股市热门","author":"Buzzing.cc","description":"用中文浏览国外股票社区里的热门讨论","keywords":["buzzing","美股","股票","股市"],"siteUrl":"https://stocks.buzzing.cc","telegram":"@stocks_top","iconUrl":"https://stocks.buzzing.cc/avatar.png","defaultSocialImageUrl":null,"social":[{"name":"Reddit Stocks","url":"https://www.reddit.com/r/stocks","external":true},{"name":"Reddit Investing","url":"https://www.reddit.com/r/investing","external":true},{"name":"Charlie Bilello's twitter","url":"https://twitter.com/charliebilello","external":true},{"name":"Buzzing","url":"https://www.buzzing.cc/","external":true}],"menuLinks":[{"name":"每周精选","url":"/issues","external":null}],"disqus":null,"utterances":null,"localize":[{"title":"Buzzing on Stocks","description":"See popular discussions in foreign stock communities in your native language","keywords":["buzzing","stocks","U.S. stocks"],"locale":"en","social":{"name":null,"url":null,"external":null},"menuLinks":[{"name":"Weekly Selection","url":"/en/issues","external":null}]},{"title":"國外股市熱門","description":"用中文瀏覽國外股票社區裡的熱門討論","keywords":["buzzing","美股","股票","股市"],"locale":"zh-Hant","social":null,"menuLinks":[{"name":"每週精選","url":"/zh-Hant/issues","external":null}]},{"title":"米国株式市場人気の話し合います","description":"人気の米国株式市場の話し合いまを日本語で閲覧","keywords":["buzzing","米国株式市場"],"locale":"ja","social":null,"menuLinks":[]}]}},"tagsGroup":{"group":[{"fieldValue":"AMCarmy","totalCount":1},{"fieldValue":"Bitcoin","totalCount":4},{"fieldValue":"Bogleheads","totalCount":179},{"fieldValue":"Facebook","totalCount":1},{"fieldValue":"FuckElon","totalCount":1},{"fieldValue":"SaveAMC","totalCount":1},{"fieldValue":"bitcoin","totalCount":3},{"fieldValue":"investing","totalCount":1247},{"fieldValue":"reddit","totalCount":8115},{"fieldValue":"science","totalCount":1},{"fieldValue":"stocks","totalCount":2687},{"fieldValue":"tweet","totalCount":1390},{"fieldValue":"wallstreetbets","totalCount":4002}]},"allBlogPost":{"nodes":[{"id":"RedditPost-fecc5990-686a-51cb-bc15-b7e8da0a3604","excerpt":"","slug":"/reddit/r/wallstreetbets/comments/kny2rx/gme_yolo_yearend_update_dec_31_2020/","title":"GME YOLO year-end update — Dec 31 2020","date":"January 01, 2021","dateISO":"2021-01-01T05:28:59.000Z","datetime":"2021-01-01 05:28","tags":["wallstreetbets","reddit"],"image":null,"imageAlt":"Reddit Image","__typename":"SocialMediaPost","provider":"Reddit","thirdPartyId":"fecc5990-686a-51cb-bc15-b7e8da0a3604","url":"https://www.reddit.com/r/wallstreetbets/comments/kny2rx/gme_yolo_yearend_update_dec_31_2020/","originalUrl":"https://www.reddit.com/r/wallstreetbets/comments/kny2rx/gme_yolo_yearend_update_dec_31_2020/","imageRemote":"https://preview.redd.it/fc401csk7l861.png?width=1080&crop=smart&auto=webp&s=d03302ebb0af797148fd37a958a6d01eabf6eaf2","video":null,"channel":"wallstreetbets","channelUrl":"https://www.reddit.com/r/wallstreetbets","author":"DeepFuckingValue","authorUrl":"https://www.reddit.com/user/DeepFuckingValue","authorImageRemote":null,"authorImage":null,"authorSlug":"DeepFuckingValue","score":1667,"views":null,"sharedCount":null,"likeCount":null,"sharedContent":null,"parent":{"localize":[{"title":"GME YOLO年终更新-2020年12月31日","the_new_excerpt":null,"locale":"zh"},{"title":"GME YOLO年終更新-2020年12月31日","the_new_excerpt":null,"locale":"zh-Hant"}]}},{"id":"RedditPost-88432633-e5f4-5d31-86c8-9275fb0933c9","excerpt":"","slug":"/reddit/r/wallstreetbets/comments/ko0nmp/buying_pltr_be_like_buy_high_sell_low/","title":"Buying $PLTR be like.... Buy high sell low","date":"January 01, 2021","dateISO":"2021-01-01T05:28:59.000Z","datetime":"2021-01-01 05:28","tags":["wallstreetbets","reddit"],"image":null,"imageAlt":"Reddit Image","__typename":"SocialMediaPost","provider":"Reddit","thirdPartyId":"88432633-e5f4-5d31-86c8-9275fb0933c9","url":"https://www.reddit.com/r/wallstreetbets/comments/ko0nmp/buying_pltr_be_like_buy_high_sell_low/","originalUrl":"https://www.reddit.com/r/wallstreetbets/comments/ko0nmp/buying_pltr_be_like_buy_high_sell_low/","imageRemote":"https://preview.redd.it/es6k4aa0zl861.jpg?width=1080&crop=smart&auto=webp&s=69fd9a51b7b7aec154e34ce0abcbb11f211618db","video":null,"channel":"wallstreetbets","channelUrl":"https://www.reddit.com/r/wallstreetbets","author":"AntiquesAndSo","authorUrl":"https://www.reddit.com/user/AntiquesAndSo","authorImageRemote":null,"authorImage":null,"authorSlug":"AntiquesAndSo","score":3343,"views":null,"sharedCount":null,"likeCount":null,"sharedContent":null,"parent":{"localize":[{"title":"购买潘多拉媒ltr就像.高买低卖","the_new_excerpt":null,"locale":"zh"},{"title":"購買潘多拉媒ltr就像.高買低賣","the_new_excerpt":null,"locale":"zh-Hant"}]}}]}},"pageContext":{"basePath":"/","pageType":"tag","tag":"wallstreetbets","tagsFilter":{"date":{"gt":"2000-12-25T10:54:58.000Z"}},"filter":{"date":{"gt":"2000-12-25T10:54:58.000Z"},"tags":{"eq":"wallstreetbets"}},"limit":500,"skip":4000,"total":4002,"totalPages":9,"currentPage":9,"maxWidth":1024,"maxHeight":512,"siteMetadata":null,"locale":"en","hrefLang":"en-US","originalPath":"/tags/wallstreetbets/page/9","dateFormat":"MM/DD/YYYY"}},"staticQueryHashes":["1239077767","2744905544","3025052997","3280999885"]}